EESchema Schematic File Version 4
EELAYER 30 0
EELAYER END
$Descr A4 11693 8268
encoding utf-8
Sheet 1 1
Title ""
Date ""
Rev ""
Comp ""
Comment1 ""
Comment2 ""
Comment3 ""
Comment4 ""
$EndDescr
$Comp
L power:GND #PWR01
U 1 1 6088F223
P 4850 3600
F 0 "#PWR01" H 4850 3350 50  0001 C CNN
F 1 "GND" V 4855 3472 50  0000 R CNN
F 2 "" H 4850 3600 50  0001 C CNN
F 3 "" H 4850 3600 50  0001 C CNN
	1    4850 3600
	0    1    1    0   
$EndComp
Text GLabel 4850 3200 0    50   Input ~ 0
GPIO0
Text GLabel 4850 3000 0    50   Input ~ 0
RX_ESP
Text GLabel 4850 3700 0    50   Input ~ 0
TX_ESP
Text GLabel 4850 3500 0    50   Input ~ 0
CH_PD
Text GLabel 4850 3300 0    50   Input ~ 0
RST
$Comp
L power:+3.3V #PWR02
U 1 1 608902C5
P 4850 3100
F 0 "#PWR02" H 4850 2950 50  0001 C CNN
F 1 "+3.3V" V 4865 3228 50  0000 L CNN
F 2 "" H 4850 3100 50  0001 C CNN
F 3 "" H 4850 3100 50  0001 C CNN
	1    4850 3100
	0    -1   -1   0   
$EndComp
Wire Wire Line
	4950 3100 4850 3100
Wire Wire Line
	4850 3200 4950 3200
Wire Wire Line
	4950 3300 4850 3300
Wire Wire Line
	4850 3400 4950 3400
Wire Wire Line
	4950 3500 4850 3500
Wire Wire Line
	4850 3600 4950 3600
$Comp
L Switch:SW_Push SW1
U 1 1 60894F85
P 7250 4450
F 0 "SW1" H 7250 4735 50  0000 C CNN
F 1 "Reset" H 7250 4644 50  0000 C CNN
F 2 "Button_Switch_SMD:SW_Push_1P1T_NO_6x6mm_H9.5mm" H 7250 4650 50  0001 C CNN
F 3 "~" H 7250 4650 50  0001 C CNN
	1    7250 4450
	1    0    0    -1  
$EndComp
$Comp
L Device:Jumper JP1
U 1 1 6089575F
P 6000 4450
F 0 "JP1" H 6000 4714 50  0000 C CNN
F 1 "Prog" H 6000 4623 50  0000 C CNN
F 2 "Connector_PinHeader_2.54mm:PinHeader_2x01_P2.54mm_Vertical_SMD" H 6000 4450 50  0001 C CNN
F 3 "~" H 6000 4450 50  0001 C CNN
	1    6000 4450
	1    0    0    -1  
$EndComp
$Comp
L power:GND #PWR05
U 1 1 60899231
P 5700 4600
F 0 "#PWR05" H 5700 4350 50  0001 C CNN
F 1 "GND" H 5705 4427 50  0000 C CNN
F 2 "" H 5700 4600 50  0001 C CNN
F 3 "" H 5700 4600 50  0001 C CNN
	1    5700 4600
	1    0    0    -1  
$EndComp
Wire Wire Line
	5700 4450 5700 4600
Text GLabel 7600 4450 2    50   Input ~ 0
RST
Wire Wire Line
	6450 4450 6300 4450
$Comp
L power:GND #PWR06
U 1 1 6089AB93
P 7050 4600
F 0 "#PWR06" H 7050 4350 50  0001 C CNN
F 1 "GND" H 7055 4427 50  0000 C CNN
F 2 "" H 7050 4600 50  0001 C CNN
F 3 "" H 7050 4600 50  0001 C CNN
	1    7050 4600
	1    0    0    -1  
$EndComp
Wire Wire Line
	7050 4450 7050 4600
Text GLabel 6450 4450 2    50   Input ~ 0
GPIO0
Wire Wire Line
	7600 4450 7450 4450
Text GLabel 7300 3300 0    50   Input ~ 0
CH_PD
$Comp
L power:+3.3V #PWR09
U 1 1 6089C09A
P 7400 3300
F 0 "#PWR09" H 7400 3150 50  0001 C CNN
F 1 "+3.3V" V 7415 3428 50  0000 L CNN
F 2 "" H 7400 3300 50  0001 C CNN
F 3 "" H 7400 3300 50  0001 C CNN
	1    7400 3300
	0    1    1    0   
$EndComp
Wire Wire Line
	7400 3300 7300 3300
Text GLabel 7300 3450 0    50   Input ~ 0
TX_ESP
Text GLabel 7300 3600 0    50   Input ~ 0
RX_ESP
Text GLabel 7450 3600 2    50   Input ~ 0
TXD
Wire Wire Line
	7450 3450 7300 3450
Wire Wire Line
	7300 3600 7450 3600
Wire Notes Line
	4200 3850 8000 3850
Wire Notes Line
	8000 2600 8000 4850
Wire Notes Line
	6800 2600 6800 4850
Text Notes 4600 2700 0    50   ~ 0
ESP Side
Text Notes 7200 2700 0    50   ~ 0
Connections
Text Notes 7150 3950 0    50   ~ 0
Reset section\n
Text Notes 5800 4050 0    50   ~ 0
Jumper to go on\nprogramming mode
Text Notes 4500 3950 0    50   ~ 0
Power Flags
$Comp
L Connector:Conn_01x08_Female J1
U 1 1 6088EDFF
P 5150 3300
F 0 "J1" H 4750 3750 50  0000 L CNN
F 1 "ESP8266" H 4900 3750 50  0000 L CNN
F 2 "Connector_PinHeader_2.54mm:PinHeader_2x04_P2.54mm_Vertical_SMD" H 5150 3300 50  0001 C CNN
F 3 "~" H 5150 3300 50  0001 C CNN
	1    5150 3300
	1    0    0    -1  
$EndComp
Wire Wire Line
	4850 3700 4950 3700
Wire Wire Line
	4850 3000 4950 3000
Text GLabel 4850 3400 0    50   Input ~ 0
GPIO2
Text GLabel 7250 3050 0    50   Input ~ 0
GPIO2
$Comp
L Connector:Conn_01x02_Male J3
U 1 1 6089D794
P 7700 2950
F 0 "J3" H 7672 2924 50  0000 R CNN
F 1 "GPIO2" H 7672 2833 50  0000 R CNN
F 2 "Connector_PinHeader_2.54mm:PinHeader_2x01_P2.54mm_Vertical_SMD" H 7700 2950 50  0001 C CNN
F 3 "~" H 7700 2950 50  0001 C CNN
	1    7700 2950
	-1   0    0    -1  
$EndComp
Wire Wire Line
	7500 3050 7250 3050
$Comp
L power:GND #PWR010
U 1 1 6089FA8A
P 7250 2950
F 0 "#PWR010" H 7250 2700 50  0001 C CNN
F 1 "GND" V 7255 2822 50  0000 R CNN
F 2 "" H 7250 2950 50  0001 C CNN
F 3 "" H 7250 2950 50  0001 C CNN
	1    7250 2950
	0    1    1    0   
$EndComp
Wire Wire Line
	7250 2950 7500 2950
$Comp
L Interface_USB:CH340G U2
U 1 1 60B55DBB
P 3150 3950
F 0 "U2" H 3150 3261 50  0000 C CNN
F 1 "CH340G" H 3150 3170 50  0000 C CNN
F 2 "Package_SO:SOIC-16_3.9x9.9mm_P1.27mm" H 3200 3400 50  0001 L CNN
F 3 "http://www.datasheet5.com/pdf-local-2195953" H 2800 4750 50  0001 C CNN
	1    3150 3950
	1    0    0    -1  
$EndComp
$Comp
L Connector:USB_B_Mini J4
U 1 1 60B591C5
P 2400 1700
F 0 "J4" H 2457 2167 50  0000 C CNN
F 1 "USB_B_Mini" H 2457 2076 50  0000 C CNN
F 2 "Connector_USB:USB_Mini-B_Wuerth_65100516121_Horizontal" H 2550 1650 50  0001 C CNN
F 3 "~" H 2550 1650 50  0001 C CNN
	1    2400 1700
	1    0    0    -1  
$EndComp
Wire Wire Line
	2300 2100 2300 2150
Wire Wire Line
	2300 2150 2400 2150
Wire Wire Line
	2400 2150 2400 2100
$Comp
L power:GND #PWR07
U 1 1 60B69F85
P 2400 2200
F 0 "#PWR07" H 2400 1950 50  0001 C CNN
F 1 "GND" H 2405 2027 50  0000 C CNN
F 2 "" H 2400 2200 50  0001 C CNN
F 3 "" H 2400 2200 50  0001 C CNN
	1    2400 2200
	1    0    0    -1  
$EndComp
Wire Wire Line
	2400 2200 2400 2150
Connection ~ 2400 2150
$Comp
L power:+5V #PWR013
U 1 1 60B6FEB9
P 3200 2000
F 0 "#PWR013" H 3200 1850 50  0001 C CNN
F 1 "+5V" H 3215 2173 50  0000 C CNN
F 2 "" H 3200 2000 50  0001 C CNN
F 3 "" H 3200 2000 50  0001 C CNN
	1    3200 2000
	-1   0    0    1   
$EndComp
NoConn ~ 2700 1900
$Comp
L Device:C C2
U 1 1 60B8A7DC
P 2150 5850
F 0 "C2" H 2265 5896 50  0000 L CNN
F 1 "100n" H 2265 5805 50  0000 L CNN
F 2 "Capacitor_SMD:C_0805_2012Metric_Pad1.18x1.45mm_HandSolder" H 2188 5700 50  0001 C CNN
F 3 "~" H 2150 5850 50  0001 C CNN
	1    2150 5850
	1    0    0    -1  
$EndComp
$Comp
L power:GND #PWR014
U 1 1 60B8AFCB
P 2750 6050
F 0 "#PWR014" H 2750 5800 50  0001 C CNN
F 1 "GND" H 2755 5877 50  0000 C CNN
F 2 "" H 2750 6050 50  0001 C CNN
F 3 "" H 2750 6050 50  0001 C CNN
	1    2750 6050
	1    0    0    -1  
$EndComp
Wire Wire Line
	2750 6050 2750 6000
$Comp
L power:+3.3V #PWR017
U 1 1 60B6D23A
P 3600 5600
F 0 "#PWR017" H 3600 5450 50  0001 C CNN
F 1 "+3.3V" H 3615 5773 50  0000 C CNN
F 2 "" H 3600 5600 50  0001 C CNN
F 3 "" H 3600 5600 50  0001 C CNN
	1    3600 5600
	1    0    0    -1  
$EndComp
Wire Wire Line
	1900 5700 2150 5700
$Comp
L Device:CP C4
U 1 1 60B97B3A
P 3300 5850
F 0 "C4" H 3418 5896 50  0000 L CNN
F 1 "10u" H 3418 5805 50  0000 L CNN
F 2 "Capacitor_Tantalum_SMD:CP_EIA-3216-10_Kemet-I_Pad1.58x1.35mm_HandSolder" H 3338 5700 50  0001 C CNN
F 3 "~" H 3300 5850 50  0001 C CNN
	1    3300 5850
	1    0    0    -1  
$EndComp
$Comp
L power:+5V #PWR08
U 1 1 60BACBAD
P 1900 5600
F 0 "#PWR08" H 1900 5450 50  0001 C CNN
F 1 "+5V" H 1915 5773 50  0000 C CNN
F 2 "" H 1900 5600 50  0001 C CNN
F 3 "" H 1900 5600 50  0001 C CNN
	1    1900 5600
	1    0    0    -1  
$EndComp
Wire Wire Line
	3600 5600 3600 5700
Wire Wire Line
	1900 5700 1900 5600
$Comp
L Device:R R1
U 1 1 60BB535E
P 4650 5650
F 0 "R1" H 4720 5696 50  0000 L CNN
F 1 "R" H 4720 5605 50  0000 L CNN
F 2 "Resistor_SMD:R_0805_2012Metric_Pad1.20x1.40mm_HandSolder" V 4580 5650 50  0001 C CNN
F 3 "~" H 4650 5650 50  0001 C CNN
	1    4650 5650
	1    0    0    -1  
$EndComp
$Comp
L power:PWR_FLAG #FLG03
U 1 1 60BB950F
P 5350 4450
F 0 "#FLG03" H 5350 4525 50  0001 C CNN
F 1 "PWR_FLAG" H 5350 4623 50  0000 C CNN
F 2 "" H 5350 4450 50  0001 C CNN
F 3 "~" H 5350 4450 50  0001 C CNN
	1    5350 4450
	1    0    0    -1  
$EndComp
Wire Wire Line
	5350 4550 5350 4450
$Comp
L power:+5V #PWR021
U 1 1 60BBD6F0
P 5350 4550
F 0 "#PWR021" H 5350 4400 50  0001 C CNN
F 1 "+5V" H 5365 4723 50  0000 C CNN
F 2 "" H 5350 4550 50  0001 C CNN
F 3 "" H 5350 4550 50  0001 C CNN
	1    5350 4550
	-1   0    0    1   
$EndComp
$Comp
L Device:LED D1
U 1 1 60BEBCB8
P 4650 6050
F 0 "D1" V 4689 5932 50  0000 R CNN
F 1 "On" V 4598 5932 50  0000 R CNN
F 2 "LED_SMD:LED_0805_2012Metric_Pad1.15x1.40mm_HandSolder" H 4650 6050 50  0001 C CNN
F 3 "~" H 4650 6050 50  0001 C CNN
	1    4650 6050
	0    -1   -1   0   
$EndComp
$Comp
L power:+3.3V #PWR019
U 1 1 60BEC56E
P 4650 5400
F 0 "#PWR019" H 4650 5250 50  0001 C CNN
F 1 "+3.3V" H 4665 5573 50  0000 C CNN
F 2 "" H 4650 5400 50  0001 C CNN
F 3 "" H 4650 5400 50  0001 C CNN
	1    4650 5400
	1    0    0    -1  
$EndComp
$Comp
L power:GND #PWR020
U 1 1 60BECC09
P 4650 6300
F 0 "#PWR020" H 4650 6050 50  0001 C CNN
F 1 "GND" H 4655 6127 50  0000 C CNN
F 2 "" H 4650 6300 50  0001 C CNN
F 3 "" H 4650 6300 50  0001 C CNN
	1    4650 6300
	1    0    0    -1  
$EndComp
Wire Wire Line
	4650 6300 4650 6200
Wire Wire Line
	4650 5900 4650 5800
Wire Wire Line
	4650 5500 4650 5400
$Comp
L power:GND #PWR018
U 1 1 60BEF751
P 3300 6050
F 0 "#PWR018" H 3300 5800 50  0001 C CNN
F 1 "GND" H 3305 5877 50  0000 C CNN
F 2 "" H 3300 6050 50  0001 C CNN
F 3 "" H 3300 6050 50  0001 C CNN
	1    3300 6050
	1    0    0    -1  
$EndComp
$Comp
L power:GND #PWR012
U 1 1 60BF0FF9
P 2150 6050
F 0 "#PWR012" H 2150 5800 50  0001 C CNN
F 1 "GND" H 2155 5877 50  0000 C CNN
F 2 "" H 2150 6050 50  0001 C CNN
F 3 "" H 2150 6050 50  0001 C CNN
	1    2150 6050
	1    0    0    -1  
$EndComp
Wire Wire Line
	3050 3350 3050 3200
Wire Wire Line
	3050 3200 3150 3200
Wire Wire Line
	3150 3200 3150 3350
$Comp
L power:+3.3V #PWR015
U 1 1 60C2A528
P 3150 3100
F 0 "#PWR015" H 3150 2950 50  0001 C CNN
F 1 "+3.3V" H 3165 3273 50  0000 C CNN
F 2 "" H 3150 3100 50  0001 C CNN
F 3 "" H 3150 3100 50  0001 C CNN
	1    3150 3100
	1    0    0    -1  
$EndComp
Wire Wire Line
	3150 3100 3150 3200
Connection ~ 3150 3200
NoConn ~ 3550 3850
NoConn ~ 3550 3950
NoConn ~ 3550 4050
NoConn ~ 3550 4150
NoConn ~ 3550 4250
NoConn ~ 3550 4350
Text GLabel 3650 3550 2    50   Input ~ 0
TXD
Text GLabel 3650 3650 2    50   Input ~ 0
RXD
Wire Wire Line
	3650 3650 3550 3650
Wire Wire Line
	3550 3550 3650 3550
Text GLabel 7450 3450 2    50   Input ~ 0
RXD
$Comp
L Device:C C5
U 1 1 60B9F8BB
P 1750 3950
F 0 "C5" V 1498 3950 50  0000 C CNN
F 1 "22p" V 1589 3950 50  0000 C CNN
F 2 "Capacitor_SMD:C_0805_2012Metric_Pad1.18x1.45mm_HandSolder" H 1788 3800 50  0001 C CNN
F 3 "~" H 1750 3950 50  0001 C CNN
	1    1750 3950
	1    0    0    -1  
$EndComp
$Comp
L Device:C C6
U 1 1 60B9FDC8
P 2050 3950
F 0 "C6" V 1798 3950 50  0000 C CNN
F 1 "22p" V 1889 3950 50  0000 C CNN
F 2 "Capacitor_SMD:C_0805_2012Metric_Pad1.18x1.45mm_HandSolder" H 2088 3800 50  0001 C CNN
F 3 "~" H 2050 3950 50  0001 C CNN
	1    2050 3950
	1    0    0    -1  
$EndComp
Wire Wire Line
	2050 3800 2050 3650
Wire Wire Line
	1750 3650 1750 3800
$Comp
L power:GND #PWR022
U 1 1 60BA20ED
P 1900 4250
F 0 "#PWR022" H 1900 4000 50  0001 C CNN
F 1 "GND" H 1905 4077 50  0000 C CNN
F 2 "" H 1900 4250 50  0001 C CNN
F 3 "" H 1900 4250 50  0001 C CNN
	1    1900 4250
	1    0    0    -1  
$EndComp
Wire Wire Line
	1750 4100 1750 4150
Wire Wire Line
	1750 4150 1900 4150
Wire Wire Line
	2050 4150 2050 4100
Connection ~ 1900 4150
Wire Wire Line
	1900 4150 2050 4150
Wire Wire Line
	1900 4250 1900 4150
$Comp
L Regulator_Linear:LD1117S33TR_SOT223 U1
U 1 1 60BA9FF1
P 2750 5700
F 0 "U1" H 2750 5942 50  0000 C CNN
F 1 "LD1117S33TR_SOT223" H 2750 5851 50  0000 C CNN
F 2 "Package_TO_SOT_SMD:SOT-223-3_TabPin2" H 2750 5900 50  0001 C CNN
F 3 "http://www.st.com/st-web-ui/static/active/en/resource/technical/document/datasheet/CD00000544.pdf" H 2850 5450 50  0001 C CNN
	1    2750 5700
	1    0    0    -1  
$EndComp
Wire Wire Line
	3050 5700 3300 5700
Connection ~ 3300 5700
Wire Wire Line
	3300 5700 3600 5700
Connection ~ 2150 5700
Wire Wire Line
	2150 6050 2150 6000
Wire Wire Line
	2150 5700 2450 5700
$Comp
L power:GND #PWR011
U 1 1 60BCE11A
P 3400 4600
F 0 "#PWR011" H 3400 4350 50  0001 C CNN
F 1 "GND" H 3405 4427 50  0000 C CNN
F 2 "" H 3400 4600 50  0001 C CNN
F 3 "" H 3400 4600 50  0001 C CNN
	1    3400 4600
	1    0    0    -1  
$EndComp
Wire Wire Line
	3150 4550 3400 4550
Wire Wire Line
	3400 4550 3400 4600
$Comp
L Device:C C1
U 1 1 60BD5132
P 3350 3200
F 0 "C1" V 3602 3200 50  0000 C CNN
F 1 "C" V 3511 3200 50  0000 C CNN
F 2 "Capacitor_SMD:C_0805_2012Metric_Pad1.18x1.45mm_HandSolder" H 3388 3050 50  0001 C CNN
F 3 "~" H 3350 3200 50  0001 C CNN
	1    3350 3200
	0    -1   -1   0   
$EndComp
Wire Wire Line
	3200 3200 3150 3200
$Comp
L power:GND #PWR016
U 1 1 60BE4956
P 3550 3250
F 0 "#PWR016" H 3550 3000 50  0001 C CNN
F 1 "GND" H 3555 3077 50  0000 C CNN
F 2 "" H 3550 3250 50  0001 C CNN
F 3 "" H 3550 3250 50  0001 C CNN
	1    3550 3250
	1    0    0    -1  
$EndComp
Wire Wire Line
	3500 3200 3550 3200
Wire Wire Line
	3550 3200 3550 3250
$Comp
L Device:Polyfuse F1
U 1 1 60BED232
P 3200 1750
F 0 "F1" H 3112 1704 50  0000 R CNN
F 1 "Polyfuse" H 3112 1795 50  0000 R CNN
F 2 "Fuse:Fuse_0805_2012Metric_Castellated" H 3250 1550 50  0001 L CNN
F 3 "~" H 3200 1750 50  0001 C CNN
	1    3200 1750
	-1   0    0    1   
$EndComp
$Comp
L Device:D D2
U 1 1 60BEDD0C
P 2950 1500
F 0 "D2" H 2950 1283 50  0000 C CNN
F 1 "D" H 2950 1374 50  0000 C CNN
F 2 "Diode_SMD:D_SMA" H 2950 1500 50  0001 C CNN
F 3 "~" H 2950 1500 50  0001 C CNN
	1    2950 1500
	-1   0    0    1   
$EndComp
Text GLabel 2800 1700 2    50   Input ~ 0
D+
Text GLabel 2800 1800 2    50   Input ~ 0
D-
Wire Wire Line
	2800 1800 2700 1800
Wire Wire Line
	2700 1700 2800 1700
Text GLabel 2650 3850 0    50   Input ~ 0
D+
Text GLabel 2650 3950 0    50   Input ~ 0
D-
Wire Wire Line
	2650 3950 2750 3950
Wire Wire Line
	2750 3850 2650 3850
Wire Wire Line
	2700 1500 2800 1500
Wire Wire Line
	3100 1500 3200 1500
Wire Wire Line
	3200 1500 3200 1600
Wire Wire Line
	3200 1900 3200 2000
Text GLabel 1650 3650 0    50   Input ~ 0
XI
Text GLabel 2150 3650 2    50   Input ~ 0
XO
Wire Wire Line
	2150 3650 2050 3650
Wire Wire Line
	1750 3650 1650 3650
Text GLabel 2650 4150 0    50   Input ~ 0
XI
Text GLabel 2650 4350 0    50   Input ~ 0
XO
Wire Wire Line
	2650 4350 2750 4350
Wire Wire Line
	2750 4150 2650 4150
Wire Notes Line
	1350 2600 8000 2600
Wire Notes Line
	1350 4850 8000 4850
Wire Notes Line
	1350 1000 4200 1000
Wire Notes Line
	4200 1000 4200 6650
Wire Notes Line
	1350 1000 1350 6650
Wire Notes Line
	5550 2600 5550 6650
Wire Notes Line
	1350 6650 5550 6650
Wire Wire Line
	3300 6050 3300 6000
NoConn ~ 2750 3650
Text Notes 2500 5100 0    50   ~ 0
Voltage Regulator 
Text Notes 2600 1100 0    50   ~ 0
USB connector
Connection ~ 1750 3650
Connection ~ 2050 3650
$Comp
L Device:Crystal_GND24 Y1
U 1 1 60CB7572
P 1900 3650
F 0 "Y1" H 2094 3696 50  0000 L CNN
F 1 "12MHz" H 2094 3605 50  0000 L CNN
F 2 "Crystal:Crystal_SMD_3225-4Pin_3.2x2.5mm" H 1900 3650 50  0001 C CNN
F 3 "~" H 1900 3650 50  0001 C CNN
	1    1900 3650
	1    0    0    -1  
$EndComp
$Comp
L power:GND #PWR0101
U 1 1 60CBF593
P 1900 3300
F 0 "#PWR0101" H 1900 3050 50  0001 C CNN
F 1 "GND" H 1905 3127 50  0000 C CNN
F 2 "" H 1900 3300 50  0001 C CNN
F 3 "" H 1900 3300 50  0001 C CNN
	1    1900 3300
	0    -1   -1   0   
$EndComp
Wire Wire Line
	1900 3850 1900 4150
Wire Wire Line
	1900 3300 1900 3450
$EndSCHEMATC
