(module Crystal_SMD_3225-4pin_3.2x2.5mm (layer F.Cu) (tedit 5DD9E2C8)
  (descr "SMD Crystal SERIES SMD3225/4 http://www.txccrystal.com/images/pdf/7m-accuracy.pdf, 3.2x2.5mm^2 package")
  (tags "SMD SMT crystal")
  (attr smd)
  (fp_text reference REF** (at 0 -2.45) (layer F.SilkS)
    (effects (font (size 0.8 0.8) (thickness 0.15)))
  )
  (fp_text value Crystal_SMD_3225-4pin_3.2x2.5mm (at 0 2.45) (layer F.Fab)
    (effects (font (size 1 1) (thickness 0.15)))
  )
  (fp_text user %R (at 0 0) (layer F.Fab)
    (effects (font (size 0.7 0.7) (thickness 0.105)))
  )
  (fp_line (start -1.6 -1.25) (end -1.6 1.25) (layer F.Fab) (width 0.1))
  (fp_line (start -1.6 1.25) (end 1.6 1.25) (layer F.Fab) (width 0.1))
  (fp_line (start 1.6 1.25) (end 1.6 -1.25) (layer F.Fab) (width 0.1))
  (fp_line (start 1.6 -1.25) (end -1.6 -1.25) (layer F.Fab) (width 0.1))
  (fp_line (start -1.6 0.25) (end -0.6 1.25) (layer F.Fab) (width 0.1))
  (fp_line (start -2 -1.65) (end -2 1.65) (layer F.SilkS) (width 0.12))
  (fp_line (start -2 1.65) (end 2 1.65) (layer F.SilkS) (width 0.12))
  (fp_line (start -2.1 -1.7) (end -2.1 1.7) (layer F.CrtYd) (width 0.05))
  (fp_line (start -2.1 1.7) (end 2.1 1.7) (layer F.CrtYd) (width 0.05))
  (fp_line (start 2.1 1.7) (end 2.1 -1.7) (layer F.CrtYd) (width 0.05))
  (fp_line (start 2.1 -1.7) (end -2.1 -1.7) (layer F.CrtYd) (width 0.05))
  (pad 4 smd rect (at -1.1 -0.85) (size 1.4 1.2) (layers F.Cu F.Paste F.Mask))
  (pad 3 smd rect (at 1.1 -0.85) (size 1.4 1.2) (layers F.Cu F.Paste F.Mask))
  (pad 2 smd rect (at 1.1 0.85) (size 1.4 1.2) (layers F.Cu F.Paste F.Mask))
  (pad 1 smd rect (at -1.1 0.85) (size 1.4 1.2) (layers F.Cu F.Paste F.Mask))
  (model ${KISYS3DMOD}/Crystal.3dshapes/Crystal_SMD_3225-4Pin_3.2x2.5mm.wrl
    (at (xyz 0 0 0))
    (scale (xyz 1 1 1))
    (rotate (xyz 0 0 0))
  )
)
