(module lc_lib:HC-49SMD (layer F.Cu) (tedit 58AA841A)
  (pad 1 smd rect (at -4.74998 -0.0) (size 5.5 2) (drill 0) (layers F.Cu F.Paste F.Mask))
  (pad 2 smd rect (at 4.74998 -0.0) (size 5.5 2) (drill 0) (layers F.Cu F.Paste F.Mask))
  (fp_line (start -5.69999 -2.4) (end 5.69999 -2.4) (layer F.SilkS) (width 0.254))
  (fp_line (start -5.69999 -1.64999) (end -5.69999 -2.4) (layer F.SilkS) (width 0.254))
  (fp_line (start 5.69999 -1.64999) (end 5.69999 -2.4) (layer F.SilkS) (width 0.254))
  (fp_line (start -5.69999 2.4) (end -5.69999 1.64999) (layer F.SilkS) (width 0.254))
  (fp_line (start 5.69999 2.4) (end 5.69999 1.64999) (layer F.SilkS) (width 0.254))
  (fp_line (start -5.69999 2.4) (end 5.69999 2.4) (layer F.SilkS) (width 0.254))
  (fp_text reference REF** (at -6.1251891409826 -3.0762761718035) (layer F.SilkS)
    (effects (font (size 1 1) (thickness 0.15)))
  )
  (fp_text value HC-49SMD (at -5.2393606255721 5.0257238281965) (layer F.Fab)
    (effects (font (size 1 1) (thickness 0.15)))
  )
  (fp_line (start -7.54998 -2.45) (end 7.54998 -2.45) (layer F.CrtYd) (width 0.05))
  (fp_line (start 7.54998 -2.45) (end 7.54998 2.45) (layer F.CrtYd) (width 0.05))
  (fp_line (start 7.54998 2.45) (end -7.54998 2.45) (layer F.CrtYd) (width 0.05))
  (fp_line (start -7.54998 2.45) (end -7.54998 -2.45) (layer F.CrtYd) (width 0.05))
)
