%FSLAX45Y45*%
G04 Gerber Fmt 4.5, Leading zero omitted, Abs format (unit mm)*
G04 Created by KiCad (PCBNEW 5.1.10) date 2021-07-03 20:12:45*
%MOMM*%
%LPD*%
G01*
G04 APERTURE LIST*
%TA.AperFunction,Profile*%
%ADD10C,0.100000*%
%TD*%
%ADD11C,0.200000*%
%ADD12C,0.300000*%
G04 APERTURE END LIST*
D10*
X16000000Y-5500000D02*
X16000000Y-8500000D01*
X12000000Y-5500000D02*
X16000000Y-5500000D01*
X12000000Y-8500000D02*
X12000000Y-5500000D01*
X16000000Y-8500000D02*
X12000000Y-8500000D01*
D11*
D12*
X12281428Y-8970714D02*
X12281428Y-8670714D01*
X12352857Y-8670714D01*
X12395714Y-8685000D01*
X12424286Y-8713572D01*
X12438571Y-8742143D01*
X12452857Y-8799286D01*
X12452857Y-8842143D01*
X12438571Y-8899286D01*
X12424286Y-8927857D01*
X12395714Y-8956429D01*
X12352857Y-8970714D01*
X12281428Y-8970714D01*
X12581428Y-8970714D02*
X12581428Y-8770714D01*
X12581428Y-8827857D02*
X12595714Y-8799286D01*
X12610000Y-8785000D01*
X12638571Y-8770714D01*
X12667143Y-8770714D01*
X12767143Y-8970714D02*
X12767143Y-8770714D01*
X12767143Y-8670714D02*
X12752857Y-8685000D01*
X12767143Y-8699286D01*
X12781428Y-8685000D01*
X12767143Y-8670714D01*
X12767143Y-8699286D01*
X12952857Y-8970714D02*
X12924286Y-8956429D01*
X12910000Y-8927857D01*
X12910000Y-8670714D01*
X13110000Y-8970714D02*
X13081428Y-8956429D01*
X13067143Y-8927857D01*
X13067143Y-8670714D01*
X13452857Y-8970714D02*
X13452857Y-8670714D01*
X13552857Y-8885000D01*
X13652857Y-8670714D01*
X13652857Y-8970714D01*
X13924286Y-8970714D02*
X13924286Y-8813572D01*
X13910000Y-8785000D01*
X13881428Y-8770714D01*
X13824286Y-8770714D01*
X13795714Y-8785000D01*
X13924286Y-8956429D02*
X13895714Y-8970714D01*
X13824286Y-8970714D01*
X13795714Y-8956429D01*
X13781428Y-8927857D01*
X13781428Y-8899286D01*
X13795714Y-8870714D01*
X13824286Y-8856429D01*
X13895714Y-8856429D01*
X13924286Y-8842143D01*
X14067143Y-8770714D02*
X14067143Y-9070714D01*
X14067143Y-8785000D02*
X14095714Y-8770714D01*
X14152857Y-8770714D01*
X14181428Y-8785000D01*
X14195714Y-8799286D01*
X14210000Y-8827857D01*
X14210000Y-8913572D01*
X14195714Y-8942143D01*
X14181428Y-8956429D01*
X14152857Y-8970714D01*
X14095714Y-8970714D01*
X14067143Y-8956429D01*
X14338571Y-8942143D02*
X14352857Y-8956429D01*
X14338571Y-8970714D01*
X14324286Y-8956429D01*
X14338571Y-8942143D01*
X14338571Y-8970714D01*
X14338571Y-8785000D02*
X14352857Y-8799286D01*
X14338571Y-8813572D01*
X14324286Y-8799286D01*
X14338571Y-8785000D01*
X14338571Y-8813572D01*
M02*
