%TF.GenerationSoftware,KiCad,Pcbnew,5.1.10*%
%TF.CreationDate,2021-07-03T20:12:42-05:00*%
%TF.ProjectId,usb-ttl-esp-programming-board,7573622d-7474-46c2-9d65-73702d70726f,rev?*%
%TF.SameCoordinates,Original*%
%TF.FileFunction,OtherDrawing,Comment*%
%FSLAX46Y46*%
G04 Gerber Fmt 4.6, Leading zero omitted, Abs format (unit mm)*
G04 Created by KiCad (PCBNEW 5.1.10) date 2021-07-03 20:12:42*
%MOMM*%
%LPD*%
G01*
G04 APERTURE LIST*
%ADD10C,0.200000*%
%ADD11C,0.150000*%
G04 APERTURE END LIST*
D10*
X132000000Y-67700000D02*
X132000000Y-73000000D01*
D11*
X171847619Y-65809523D02*
X171847619Y-66428571D01*
X171466666Y-66095238D01*
X171466666Y-66238095D01*
X171419047Y-66333333D01*
X171371428Y-66380952D01*
X171276190Y-66428571D01*
X171038095Y-66428571D01*
X170942857Y-66380952D01*
X170895238Y-66333333D01*
X170847619Y-66238095D01*
X170847619Y-65952380D01*
X170895238Y-65857142D01*
X170942857Y-65809523D01*
X171847619Y-67047619D02*
X171847619Y-67142857D01*
X171800000Y-67238095D01*
X171752380Y-67285714D01*
X171657142Y-67333333D01*
X171466666Y-67380952D01*
X171228571Y-67380952D01*
X171038095Y-67333333D01*
X170942857Y-67285714D01*
X170895238Y-67238095D01*
X170847619Y-67142857D01*
X170847619Y-67047619D01*
X170895238Y-66952380D01*
X170942857Y-66904761D01*
X171038095Y-66857142D01*
X171228571Y-66809523D01*
X171466666Y-66809523D01*
X171657142Y-66857142D01*
X171752380Y-66904761D01*
X171800000Y-66952380D01*
X171847619Y-67047619D01*
X170942857Y-67809523D02*
X170895238Y-67857142D01*
X170847619Y-67809523D01*
X170895238Y-67761904D01*
X170942857Y-67809523D01*
X170847619Y-67809523D01*
X171847619Y-68476190D02*
X171847619Y-68571428D01*
X171800000Y-68666666D01*
X171752380Y-68714285D01*
X171657142Y-68761904D01*
X171466666Y-68809523D01*
X171228571Y-68809523D01*
X171038095Y-68761904D01*
X170942857Y-68714285D01*
X170895238Y-68666666D01*
X170847619Y-68571428D01*
X170847619Y-68476190D01*
X170895238Y-68380952D01*
X170942857Y-68333333D01*
X171038095Y-68285714D01*
X171228571Y-68238095D01*
X171466666Y-68238095D01*
X171657142Y-68285714D01*
X171752380Y-68333333D01*
X171800000Y-68380952D01*
X171847619Y-68476190D01*
X171847619Y-69428571D02*
X171847619Y-69523809D01*
X171800000Y-69619047D01*
X171752380Y-69666666D01*
X171657142Y-69714285D01*
X171466666Y-69761904D01*
X171228571Y-69761904D01*
X171038095Y-69714285D01*
X170942857Y-69666666D01*
X170895238Y-69619047D01*
X170847619Y-69523809D01*
X170847619Y-69428571D01*
X170895238Y-69333333D01*
X170942857Y-69285714D01*
X171038095Y-69238095D01*
X171228571Y-69190476D01*
X171466666Y-69190476D01*
X171657142Y-69238095D01*
X171752380Y-69285714D01*
X171800000Y-69333333D01*
X171847619Y-69428571D01*
X171847619Y-70380952D02*
X171847619Y-70476190D01*
X171800000Y-70571428D01*
X171752380Y-70619047D01*
X171657142Y-70666666D01*
X171466666Y-70714285D01*
X171228571Y-70714285D01*
X171038095Y-70666666D01*
X170942857Y-70619047D01*
X170895238Y-70571428D01*
X170847619Y-70476190D01*
X170847619Y-70380952D01*
X170895238Y-70285714D01*
X170942857Y-70238095D01*
X171038095Y-70190476D01*
X171228571Y-70142857D01*
X171466666Y-70142857D01*
X171657142Y-70190476D01*
X171752380Y-70238095D01*
X171800000Y-70285714D01*
X171847619Y-70380952D01*
X170847619Y-71904761D02*
X171514285Y-71904761D01*
X171419047Y-71904761D02*
X171466666Y-71952380D01*
X171514285Y-72047619D01*
X171514285Y-72190476D01*
X171466666Y-72285714D01*
X171371428Y-72333333D01*
X170847619Y-72333333D01*
X171371428Y-72333333D02*
X171466666Y-72380952D01*
X171514285Y-72476190D01*
X171514285Y-72619047D01*
X171466666Y-72714285D01*
X171371428Y-72761904D01*
X170847619Y-72761904D01*
X170847619Y-73238095D02*
X171514285Y-73238095D01*
X171419047Y-73238095D02*
X171466666Y-73285714D01*
X171514285Y-73380952D01*
X171514285Y-73523809D01*
X171466666Y-73619047D01*
X171371428Y-73666666D01*
X170847619Y-73666666D01*
X171371428Y-73666666D02*
X171466666Y-73714285D01*
X171514285Y-73809523D01*
X171514285Y-73952380D01*
X171466666Y-74047619D01*
X171371428Y-74095238D01*
X170847619Y-74095238D01*
X170000000Y-55000000D02*
X170000000Y-85000000D01*
X160000000Y-55000000D02*
X170586421Y-55000000D01*
X160000000Y-85000000D02*
X170586421Y-85000000D01*
X170000000Y-85000000D02*
X169413579Y-83873496D01*
X170000000Y-85000000D02*
X170586421Y-83873496D01*
X170000000Y-55000000D02*
X169413579Y-56126504D01*
X170000000Y-55000000D02*
X170586421Y-56126504D01*
X136333333Y-48485714D02*
X136333333Y-49152380D01*
X136095238Y-48104761D02*
X135857142Y-48819047D01*
X136476190Y-48819047D01*
X137047619Y-48152380D02*
X137142857Y-48152380D01*
X137238095Y-48200000D01*
X137285714Y-48247619D01*
X137333333Y-48342857D01*
X137380952Y-48533333D01*
X137380952Y-48771428D01*
X137333333Y-48961904D01*
X137285714Y-49057142D01*
X137238095Y-49104761D01*
X137142857Y-49152380D01*
X137047619Y-49152380D01*
X136952380Y-49104761D01*
X136904761Y-49057142D01*
X136857142Y-48961904D01*
X136809523Y-48771428D01*
X136809523Y-48533333D01*
X136857142Y-48342857D01*
X136904761Y-48247619D01*
X136952380Y-48200000D01*
X137047619Y-48152380D01*
X137809523Y-49057142D02*
X137857142Y-49104761D01*
X137809523Y-49152380D01*
X137761904Y-49104761D01*
X137809523Y-49057142D01*
X137809523Y-49152380D01*
X138476190Y-48152380D02*
X138571428Y-48152380D01*
X138666666Y-48200000D01*
X138714285Y-48247619D01*
X138761904Y-48342857D01*
X138809523Y-48533333D01*
X138809523Y-48771428D01*
X138761904Y-48961904D01*
X138714285Y-49057142D01*
X138666666Y-49104761D01*
X138571428Y-49152380D01*
X138476190Y-49152380D01*
X138380952Y-49104761D01*
X138333333Y-49057142D01*
X138285714Y-48961904D01*
X138238095Y-48771428D01*
X138238095Y-48533333D01*
X138285714Y-48342857D01*
X138333333Y-48247619D01*
X138380952Y-48200000D01*
X138476190Y-48152380D01*
X139428571Y-48152380D02*
X139523809Y-48152380D01*
X139619047Y-48200000D01*
X139666666Y-48247619D01*
X139714285Y-48342857D01*
X139761904Y-48533333D01*
X139761904Y-48771428D01*
X139714285Y-48961904D01*
X139666666Y-49057142D01*
X139619047Y-49104761D01*
X139523809Y-49152380D01*
X139428571Y-49152380D01*
X139333333Y-49104761D01*
X139285714Y-49057142D01*
X139238095Y-48961904D01*
X139190476Y-48771428D01*
X139190476Y-48533333D01*
X139238095Y-48342857D01*
X139285714Y-48247619D01*
X139333333Y-48200000D01*
X139428571Y-48152380D01*
X140380952Y-48152380D02*
X140476190Y-48152380D01*
X140571428Y-48200000D01*
X140619047Y-48247619D01*
X140666666Y-48342857D01*
X140714285Y-48533333D01*
X140714285Y-48771428D01*
X140666666Y-48961904D01*
X140619047Y-49057142D01*
X140571428Y-49104761D01*
X140476190Y-49152380D01*
X140380952Y-49152380D01*
X140285714Y-49104761D01*
X140238095Y-49057142D01*
X140190476Y-48961904D01*
X140142857Y-48771428D01*
X140142857Y-48533333D01*
X140190476Y-48342857D01*
X140238095Y-48247619D01*
X140285714Y-48200000D01*
X140380952Y-48152380D01*
X141904761Y-49152380D02*
X141904761Y-48485714D01*
X141904761Y-48580952D02*
X141952380Y-48533333D01*
X142047619Y-48485714D01*
X142190476Y-48485714D01*
X142285714Y-48533333D01*
X142333333Y-48628571D01*
X142333333Y-49152380D01*
X142333333Y-48628571D02*
X142380952Y-48533333D01*
X142476190Y-48485714D01*
X142619047Y-48485714D01*
X142714285Y-48533333D01*
X142761904Y-48628571D01*
X142761904Y-49152380D01*
X143238095Y-49152380D02*
X143238095Y-48485714D01*
X143238095Y-48580952D02*
X143285714Y-48533333D01*
X143380952Y-48485714D01*
X143523809Y-48485714D01*
X143619047Y-48533333D01*
X143666666Y-48628571D01*
X143666666Y-49152380D01*
X143666666Y-48628571D02*
X143714285Y-48533333D01*
X143809523Y-48485714D01*
X143952380Y-48485714D01*
X144047619Y-48533333D01*
X144095238Y-48628571D01*
X144095238Y-49152380D01*
X120000000Y-50000000D02*
X160000000Y-50000000D01*
X120000000Y-55000000D02*
X120000000Y-49413579D01*
X160000000Y-55000000D02*
X160000000Y-49413579D01*
X160000000Y-50000000D02*
X158873496Y-50586421D01*
X160000000Y-50000000D02*
X158873496Y-49413579D01*
X120000000Y-50000000D02*
X121126504Y-50586421D01*
X120000000Y-50000000D02*
X121126504Y-49413579D01*
M02*
