%TF.GenerationSoftware,KiCad,Pcbnew,5.1.10*%
%TF.CreationDate,2021-07-03T20:12:42-05:00*%
%TF.ProjectId,usb-ttl-esp-programming-board,7573622d-7474-46c2-9d65-73702d70726f,rev?*%
%TF.SameCoordinates,Original*%
%TF.FileFunction,Other,Fab,Top*%
%FSLAX46Y46*%
G04 Gerber Fmt 4.6, Leading zero omitted, Abs format (unit mm)*
G04 Created by KiCad (PCBNEW 5.1.10) date 2021-07-03 20:12:42*
%MOMM*%
%LPD*%
G01*
G04 APERTURE LIST*
%ADD10C,0.100000*%
%ADD11C,0.300000*%
G04 APERTURE END LIST*
D10*
%TO.C,J2*%
X138435000Y-65370000D02*
X140340000Y-65370000D01*
X140340000Y-65370000D02*
X140340000Y-80610000D01*
X140340000Y-80610000D02*
X137800000Y-80610000D01*
X137800000Y-80610000D02*
X137800000Y-66005000D01*
X137800000Y-66005000D02*
X138435000Y-65370000D01*
X135980000Y-66320000D02*
X137800000Y-66320000D01*
X135980000Y-66320000D02*
X135980000Y-66960000D01*
X135980000Y-66960000D02*
X137800000Y-66960000D01*
X140340000Y-66320000D02*
X146340000Y-66320000D01*
X146340000Y-66320000D02*
X146340000Y-66960000D01*
X140340000Y-66960000D02*
X146340000Y-66960000D01*
X135980000Y-68860000D02*
X137800000Y-68860000D01*
X135980000Y-68860000D02*
X135980000Y-69500000D01*
X135980000Y-69500000D02*
X137800000Y-69500000D01*
X140340000Y-68860000D02*
X146340000Y-68860000D01*
X146340000Y-68860000D02*
X146340000Y-69500000D01*
X140340000Y-69500000D02*
X146340000Y-69500000D01*
X135980000Y-71400000D02*
X137800000Y-71400000D01*
X135980000Y-71400000D02*
X135980000Y-72040000D01*
X135980000Y-72040000D02*
X137800000Y-72040000D01*
X140340000Y-71400000D02*
X146340000Y-71400000D01*
X146340000Y-71400000D02*
X146340000Y-72040000D01*
X140340000Y-72040000D02*
X146340000Y-72040000D01*
X135980000Y-73940000D02*
X137800000Y-73940000D01*
X135980000Y-73940000D02*
X135980000Y-74580000D01*
X135980000Y-74580000D02*
X137800000Y-74580000D01*
X140340000Y-73940000D02*
X146340000Y-73940000D01*
X146340000Y-73940000D02*
X146340000Y-74580000D01*
X140340000Y-74580000D02*
X146340000Y-74580000D01*
X135980000Y-76480000D02*
X137800000Y-76480000D01*
X135980000Y-76480000D02*
X135980000Y-77120000D01*
X135980000Y-77120000D02*
X137800000Y-77120000D01*
X140340000Y-76480000D02*
X146340000Y-76480000D01*
X146340000Y-76480000D02*
X146340000Y-77120000D01*
X140340000Y-77120000D02*
X146340000Y-77120000D01*
X135980000Y-79020000D02*
X137800000Y-79020000D01*
X135980000Y-79020000D02*
X135980000Y-79660000D01*
X135980000Y-79660000D02*
X137800000Y-79660000D01*
X140340000Y-79020000D02*
X146340000Y-79020000D01*
X146340000Y-79020000D02*
X146340000Y-79660000D01*
X140340000Y-79660000D02*
X146340000Y-79660000D01*
%TO.C,J3*%
X146965000Y-60470000D02*
X146330000Y-59835000D01*
X151410000Y-60470000D02*
X146965000Y-60470000D01*
X151410000Y-57930000D02*
X151410000Y-60470000D01*
X146330000Y-57930000D02*
X151410000Y-57930000D01*
X146330000Y-59835000D02*
X146330000Y-57930000D01*
%TO.C,SW1*%
X127550000Y-57750000D02*
X130550000Y-57750000D01*
X130550000Y-57750000D02*
X130550000Y-63750000D01*
X130550000Y-63750000D02*
X124550000Y-63750000D01*
X124550000Y-63750000D02*
X124550000Y-57750000D01*
X124550000Y-57750000D02*
X127550000Y-57750000D01*
X129565564Y-60750000D02*
G75*
G03*
X129565564Y-60750000I-2015564J0D01*
G01*
%TO.C,JP1*%
X126530000Y-81465000D02*
X126530000Y-83370000D01*
X126530000Y-83370000D02*
X121450000Y-83370000D01*
X121450000Y-83370000D02*
X121450000Y-80830000D01*
X121450000Y-80830000D02*
X125895000Y-80830000D01*
X125895000Y-80830000D02*
X126530000Y-81465000D01*
%TO.C,J1*%
X125960000Y-67910000D02*
X129770000Y-67910000D01*
X129770000Y-67910000D02*
X129770000Y-78070000D01*
X129770000Y-78070000D02*
X124690000Y-78070000D01*
X124690000Y-78070000D02*
X124690000Y-69180000D01*
X124690000Y-69180000D02*
X125960000Y-67910000D01*
%TD*%
%TO.C,J2*%
D11*
X135433333Y-62278571D02*
X135433333Y-63350000D01*
X135338095Y-63564285D01*
X135147619Y-63707142D01*
X134861904Y-63778571D01*
X134671428Y-63778571D01*
X136290476Y-62421428D02*
X136385714Y-62350000D01*
X136576190Y-62278571D01*
X137052380Y-62278571D01*
X137242857Y-62350000D01*
X137338095Y-62421428D01*
X137433333Y-62564285D01*
X137433333Y-62707142D01*
X137338095Y-62921428D01*
X136195238Y-63778571D01*
X137433333Y-63778571D01*
%TO.C,J3*%
X143833333Y-58578571D02*
X143833333Y-59650000D01*
X143738095Y-59864285D01*
X143547619Y-60007142D01*
X143261904Y-60078571D01*
X143071428Y-60078571D01*
X144595238Y-58578571D02*
X145833333Y-58578571D01*
X145166666Y-59150000D01*
X145452380Y-59150000D01*
X145642857Y-59221428D01*
X145738095Y-59292857D01*
X145833333Y-59435714D01*
X145833333Y-59792857D01*
X145738095Y-59935714D01*
X145642857Y-60007142D01*
X145452380Y-60078571D01*
X144880952Y-60078571D01*
X144690476Y-60007142D01*
X144595238Y-59935714D01*
%TO.C,SW1*%
X132933333Y-58607142D02*
X133219047Y-58678571D01*
X133695238Y-58678571D01*
X133885714Y-58607142D01*
X133980952Y-58535714D01*
X134076190Y-58392857D01*
X134076190Y-58250000D01*
X133980952Y-58107142D01*
X133885714Y-58035714D01*
X133695238Y-57964285D01*
X133314285Y-57892857D01*
X133123809Y-57821428D01*
X133028571Y-57750000D01*
X132933333Y-57607142D01*
X132933333Y-57464285D01*
X133028571Y-57321428D01*
X133123809Y-57250000D01*
X133314285Y-57178571D01*
X133790476Y-57178571D01*
X134076190Y-57250000D01*
X134742857Y-57178571D02*
X135219047Y-58678571D01*
X135600000Y-57607142D01*
X135980952Y-58678571D01*
X136457142Y-57178571D01*
X138266666Y-58678571D02*
X137123809Y-58678571D01*
X137695238Y-58678571D02*
X137695238Y-57178571D01*
X137504761Y-57392857D01*
X137314285Y-57535714D01*
X137123809Y-57607142D01*
%TO.C,JP1*%
X128233333Y-79978571D02*
X128233333Y-81050000D01*
X128138095Y-81264285D01*
X127947619Y-81407142D01*
X127661904Y-81478571D01*
X127471428Y-81478571D01*
X129185714Y-81478571D02*
X129185714Y-79978571D01*
X129947619Y-79978571D01*
X130138095Y-80050000D01*
X130233333Y-80121428D01*
X130328571Y-80264285D01*
X130328571Y-80478571D01*
X130233333Y-80621428D01*
X130138095Y-80692857D01*
X129947619Y-80764285D01*
X129185714Y-80764285D01*
X132233333Y-81478571D02*
X131090476Y-81478571D01*
X131661904Y-81478571D02*
X131661904Y-79978571D01*
X131471428Y-80192857D01*
X131280952Y-80335714D01*
X131090476Y-80407142D01*
%TO.C,J1*%
X125333333Y-65178571D02*
X125333333Y-66250000D01*
X125238095Y-66464285D01*
X125047619Y-66607142D01*
X124761904Y-66678571D01*
X124571428Y-66678571D01*
X127333333Y-66678571D02*
X126190476Y-66678571D01*
X126761904Y-66678571D02*
X126761904Y-65178571D01*
X126571428Y-65392857D01*
X126380952Y-65535714D01*
X126190476Y-65607142D01*
%TD*%
M02*
