%TF.GenerationSoftware,KiCad,Pcbnew,5.1.10*%
%TF.CreationDate,2021-07-03T20:12:42-05:00*%
%TF.ProjectId,usb-ttl-esp-programming-board,7573622d-7474-46c2-9d65-73702d70726f,rev?*%
%TF.SameCoordinates,Original*%
%TF.FileFunction,Soldermask,Top*%
%TF.FilePolarity,Negative*%
%FSLAX46Y46*%
G04 Gerber Fmt 4.6, Leading zero omitted, Abs format (unit mm)*
G04 Created by KiCad (PCBNEW 5.1.10) date 2021-07-03 20:12:42*
%MOMM*%
%LPD*%
G01*
G04 APERTURE LIST*
%ADD10O,1.700000X1.700000*%
%ADD11R,1.700000X1.700000*%
%ADD12C,2.000000*%
G04 APERTURE END LIST*
D10*
%TO.C,J2*%
X136300000Y-79340000D03*
X136300000Y-76800000D03*
X136300000Y-74260000D03*
X136300000Y-71720000D03*
X136300000Y-69180000D03*
D11*
X136300000Y-66640000D03*
%TD*%
D10*
%TO.C,J3*%
X150140000Y-59200000D03*
D11*
X147600000Y-59200000D03*
%TD*%
D12*
%TO.C,SW1*%
X130800000Y-58500000D03*
X130800000Y-63000000D03*
X124300000Y-58500000D03*
X124300000Y-63000000D03*
%TD*%
D10*
%TO.C,JP1*%
X122720000Y-82100000D03*
D11*
X125260000Y-82100000D03*
%TD*%
D10*
%TO.C,J1*%
X128500000Y-76800000D03*
X125960000Y-76800000D03*
X128500000Y-74260000D03*
X125960000Y-74260000D03*
X128500000Y-71720000D03*
X125960000Y-71720000D03*
X128500000Y-69180000D03*
D11*
X125960000Y-69180000D03*
%TD*%
M02*
