EESchema Schematic File Version 4
EELAYER 30 0
EELAYER END
$Descr A4 11693 8268
encoding utf-8
Sheet 1 1
Title ""
Date ""
Rev ""
Comp ""
Comment1 ""
Comment2 ""
Comment3 ""
Comment4 ""
$EndDescr
$Comp
L power:GND #PWR03
U 1 1 6088D973
P 4600 4550
F 0 "#PWR03" H 4600 4300 50  0001 C CNN
F 1 "GND" H 4605 4377 50  0000 C CNN
F 2 "" H 4600 4550 50  0001 C CNN
F 3 "" H 4600 4550 50  0001 C CNN
	1    4600 4550
	1    0    0    -1  
$EndComp
$Comp
L power:+3.3V #PWR04
U 1 1 6088DCF2
P 4950 4550
F 0 "#PWR04" H 4950 4400 50  0001 C CNN
F 1 "+3.3V" H 4965 4723 50  0000 C CNN
F 2 "" H 4950 4550 50  0001 C CNN
F 3 "" H 4950 4550 50  0001 C CNN
	1    4950 4550
	-1   0    0    1   
$EndComp
$Comp
L power:PWR_FLAG #FLG02
U 1 1 6088E54F
P 4950 4450
F 0 "#FLG02" H 4950 4525 50  0001 C CNN
F 1 "PWR_FLAG" H 4950 4623 50  0000 C CNN
F 2 "" H 4950 4450 50  0001 C CNN
F 3 "~" H 4950 4450 50  0001 C CNN
	1    4950 4450
	1    0    0    -1  
$EndComp
$Comp
L power:PWR_FLAG #FLG01
U 1 1 6088E5C5
P 4600 4450
F 0 "#FLG01" H 4600 4525 50  0001 C CNN
F 1 "PWR_FLAG" H 4600 4623 50  0000 C CNN
F 2 "" H 4600 4450 50  0001 C CNN
F 3 "~" H 4600 4450 50  0001 C CNN
	1    4600 4450
	1    0    0    -1  
$EndComp
Wire Wire Line
	4600 4450 4600 4550
Wire Wire Line
	4950 4550 4950 4450
$Comp
L power:GND #PWR01
U 1 1 6088F223
P 4850 3700
F 0 "#PWR01" H 4850 3450 50  0001 C CNN
F 1 "GND" V 4855 3572 50  0000 R CNN
F 2 "" H 4850 3700 50  0001 C CNN
F 3 "" H 4850 3700 50  0001 C CNN
	1    4850 3700
	0    1    1    0   
$EndComp
Text GLabel 4850 3300 0    50   Input ~ 0
GPIO0
Text GLabel 4850 3100 0    50   Input ~ 0
RX_ESP
Text GLabel 4850 3800 0    50   Input ~ 0
TX_ESP
Text GLabel 4850 3600 0    50   Input ~ 0
CH_PD
Text GLabel 4850 3400 0    50   Input ~ 0
RST
$Comp
L power:+3.3V #PWR02
U 1 1 608902C5
P 4850 3200
F 0 "#PWR02" H 4850 3050 50  0001 C CNN
F 1 "+3.3V" V 4865 3328 50  0000 L CNN
F 2 "" H 4850 3200 50  0001 C CNN
F 3 "" H 4850 3200 50  0001 C CNN
	1    4850 3200
	0    -1   -1   0   
$EndComp
Wire Wire Line
	4950 3200 4850 3200
Wire Wire Line
	4850 3300 4950 3300
Wire Wire Line
	4950 3400 4850 3400
Wire Wire Line
	4850 3500 4950 3500
Wire Wire Line
	4950 3600 4850 3600
Wire Wire Line
	4850 3700 4950 3700
$Comp
L power:GND #PWR07
U 1 1 608938FD
P 6200 3250
F 0 "#PWR07" H 6200 3000 50  0001 C CNN
F 1 "GND" V 6205 3122 50  0000 R CNN
F 2 "" H 6200 3250 50  0001 C CNN
F 3 "" H 6200 3250 50  0001 C CNN
	1    6200 3250
	0    -1   -1   0   
$EndComp
$Comp
L power:+3.3V #PWR08
U 1 1 60893EDB
P 6200 3450
F 0 "#PWR08" H 6200 3300 50  0001 C CNN
F 1 "+3.3V" V 6215 3578 50  0000 L CNN
F 2 "" H 6200 3450 50  0001 C CNN
F 3 "" H 6200 3450 50  0001 C CNN
	1    6200 3450
	0    1    1    0   
$EndComp
$Comp
L Switch:SW_Push SW1
U 1 1 60894F85
P 7250 4450
F 0 "SW1" H 7250 4735 50  0000 C CNN
F 1 "Reset" H 7250 4644 50  0000 C CNN
F 2 "Button_Switch_THT:SW_PUSH_6mm" H 7250 4650 50  0001 C CNN
F 3 "~" H 7250 4650 50  0001 C CNN
	1    7250 4450
	1    0    0    -1  
$EndComp
$Comp
L Device:Jumper JP1
U 1 1 6089575F
P 6000 4450
F 0 "JP1" H 6000 4714 50  0000 C CNN
F 1 "Jumper" H 6000 4623 50  0000 C CNN
F 2 "Connector_PinHeader_2.54mm:PinHeader_1x02_P2.54mm_Vertical" H 6000 4450 50  0001 C CNN
F 3 "~" H 6000 4450 50  0001 C CNN
	1    6000 4450
	1    0    0    -1  
$EndComp
$Comp
L power:GND #PWR05
U 1 1 60899231
P 5700 4600
F 0 "#PWR05" H 5700 4350 50  0001 C CNN
F 1 "GND" H 5705 4427 50  0000 C CNN
F 2 "" H 5700 4600 50  0001 C CNN
F 3 "" H 5700 4600 50  0001 C CNN
	1    5700 4600
	1    0    0    -1  
$EndComp
Wire Wire Line
	5700 4450 5700 4600
Text GLabel 7600 4450 2    50   Input ~ 0
RST
Wire Wire Line
	6450 4450 6300 4450
Wire Wire Line
	6200 3250 6050 3250
Wire Wire Line
	6050 3450 6200 3450
$Comp
L power:GND #PWR06
U 1 1 6089AB93
P 7050 4600
F 0 "#PWR06" H 7050 4350 50  0001 C CNN
F 1 "GND" H 7055 4427 50  0000 C CNN
F 2 "" H 7050 4600 50  0001 C CNN
F 3 "" H 7050 4600 50  0001 C CNN
	1    7050 4600
	1    0    0    -1  
$EndComp
Wire Wire Line
	7050 4450 7050 4600
Text GLabel 6450 4450 2    50   Input ~ 0
GPIO0
Wire Wire Line
	7600 4450 7450 4450
Text GLabel 7300 3300 0    50   Input ~ 0
CH_PD
$Comp
L power:+3.3V #PWR09
U 1 1 6089C09A
P 7400 3300
F 0 "#PWR09" H 7400 3150 50  0001 C CNN
F 1 "+3.3V" V 7415 3428 50  0000 L CNN
F 2 "" H 7400 3300 50  0001 C CNN
F 3 "" H 7400 3300 50  0001 C CNN
	1    7400 3300
	0    1    1    0   
$EndComp
Wire Wire Line
	7400 3300 7300 3300
Text GLabel 6200 3550 2    50   Input ~ 0
TX_USB
Text GLabel 6200 3650 2    50   Input ~ 0
RX_USB
NoConn ~ 6050 3750
$Comp
L Connector:Conn_01x06_Male J2
U 1 1 608932EF
P 5850 3450
F 0 "J2" H 5958 3831 50  0000 C CNN
F 1 "USB-TTL" H 5958 3740 50  0000 C CNN
F 2 "Connector_PinHeader_2.54mm:PinHeader_1x06_P2.54mm_Horizontal" H 5850 3450 50  0001 C CNN
F 3 "~" H 5850 3450 50  0001 C CNN
	1    5850 3450
	1    0    0    -1  
$EndComp
NoConn ~ 6050 3350
Wire Wire Line
	6200 3550 6050 3550
Wire Wire Line
	6050 3650 6200 3650
Text GLabel 7300 3450 0    50   Input ~ 0
TX_ESP
Text GLabel 7300 3600 0    50   Input ~ 0
RX_ESP
Text GLabel 7450 3600 2    50   Input ~ 0
TX_USB
Text GLabel 7450 3450 2    50   Input ~ 0
RX_USB
Wire Wire Line
	7450 3450 7300 3450
Wire Wire Line
	7300 3600 7450 3600
Wire Notes Line
	4200 2600 8000 2600
Wire Notes Line
	8000 4850 4200 4850
Wire Notes Line
	4200 3850 8000 3850
Wire Notes Line
	8000 2600 8000 4850
Wire Notes Line
	6800 2600 6800 4850
Wire Notes Line
	5550 2600 5550 4850
Wire Notes Line
	4200 2600 4200 4850
Text Notes 4600 2700 0    50   ~ 0
ESP Side
Text Notes 5950 2700 0    50   ~ 0
USB-TTL side
Text Notes 7200 2700 0    50   ~ 0
Connections
Text Notes 7150 3950 0    50   ~ 0
Reset section\n
Text Notes 5800 4050 0    50   ~ 0
Jumper to go on\nprogramming mode
Text Notes 4500 3950 0    50   ~ 0
Power Flags
$Comp
L Connector:Conn_01x08_Female J1
U 1 1 6088EDFF
P 5150 3400
F 0 "J1" H 4750 3850 50  0000 L CNN
F 1 "ESP8266" H 4900 3850 50  0000 L CNN
F 2 "Connector_PinHeader_2.54mm:PinHeader_2x04_P2.54mm_Vertical" H 5150 3400 50  0001 C CNN
F 3 "~" H 5150 3400 50  0001 C CNN
	1    5150 3400
	1    0    0    -1  
$EndComp
Wire Wire Line
	4850 3800 4950 3800
Wire Wire Line
	4850 3100 4950 3100
Text GLabel 4850 3500 0    50   Input ~ 0
GPIO2
Text GLabel 7250 3050 0    50   Input ~ 0
GPIO2
$Comp
L Connector:Conn_01x02_Male J3
U 1 1 6089D794
P 7700 2950
F 0 "J3" H 7672 2924 50  0000 R CNN
F 1 "GPIO2" H 7672 2833 50  0000 R CNN
F 2 "Connector_PinHeader_2.54mm:PinHeader_1x02_P2.54mm_Vertical" H 7700 2950 50  0001 C CNN
F 3 "~" H 7700 2950 50  0001 C CNN
	1    7700 2950
	-1   0    0    -1  
$EndComp
Wire Wire Line
	7500 3050 7250 3050
$Comp
L power:GND #PWR010
U 1 1 6089FA8A
P 7250 2950
F 0 "#PWR010" H 7250 2700 50  0001 C CNN
F 1 "GND" V 7255 2822 50  0000 R CNN
F 2 "" H 7250 2950 50  0001 C CNN
F 3 "" H 7250 2950 50  0001 C CNN
	1    7250 2950
	0    1    1    0   
$EndComp
Wire Wire Line
	7250 2950 7500 2950
$EndSCHEMATC
