(kicad_pcb (version 20171130) (host pcbnew 5.1.10)

  (general
    (thickness 1.6)
    (drawings 20)
    (tracks 32)
    (zones 0)
    (modules 5)
    (nets 10)
  )

  (page A4)
  (layers
    (0 F.Cu signal)
    (31 B.Cu signal)
    (32 B.Adhes user hide)
    (33 F.Adhes user hide)
    (34 B.Paste user hide)
    (35 F.Paste user hide)
    (36 B.SilkS user hide)
    (37 F.SilkS user)
    (38 B.Mask user)
    (39 F.Mask user)
    (40 Dwgs.User user)
    (41 Cmts.User user hide)
    (42 Eco1.User user hide)
    (43 Eco2.User user hide)
    (44 Edge.Cuts user)
    (45 Margin user hide)
    (46 B.CrtYd user hide)
    (47 F.CrtYd user hide)
    (48 B.Fab user hide)
    (49 F.Fab user)
  )

  (setup
    (last_trace_width 0.25)
    (user_trace_width 0.254)
    (user_trace_width 0.508)
    (trace_clearance 0.2)
    (zone_clearance 0.508)
    (zone_45_only no)
    (trace_min 0.2)
    (via_size 0.8)
    (via_drill 0.4)
    (via_min_size 0.4)
    (via_min_drill 0.3)
    (uvia_size 0.3)
    (uvia_drill 0.1)
    (uvias_allowed no)
    (uvia_min_size 0.2)
    (uvia_min_drill 0.1)
    (edge_width 0.05)
    (segment_width 0.2)
    (pcb_text_width 0.3)
    (pcb_text_size 1.5 1.5)
    (mod_edge_width 0.12)
    (mod_text_size 1 1)
    (mod_text_width 0.15)
    (pad_size 1.524 1.524)
    (pad_drill 0.762)
    (pad_to_mask_clearance 0)
    (aux_axis_origin 0 0)
    (visible_elements FFFFFF7F)
    (pcbplotparams
      (layerselection 0x211e0_ffffffff)
      (usegerberextensions false)
      (usegerberattributes true)
      (usegerberadvancedattributes true)
      (creategerberjobfile true)
      (excludeedgelayer false)
      (linewidth 0.100000)
      (plotframeref false)
      (viasonmask false)
      (mode 1)
      (useauxorigin false)
      (hpglpennumber 1)
      (hpglpenspeed 20)
      (hpglpendiameter 15.000000)
      (psnegative false)
      (psa4output false)
      (plotreference true)
      (plotvalue true)
      (plotinvisibletext false)
      (padsonsilk false)
      (subtractmaskfromsilk false)
      (outputformat 5)
      (mirror false)
      (drillshape 1)
      (scaleselection 1)
      (outputdirectory "../pdf/"))
  )

  (net 0 "")
  (net 1 CH_PD)
  (net 2 RX_ESP)
  (net 3 RST)
  (net 4 GPIO0)
  (net 5 RX_USB)
  (net 6 GND)
  (net 7 "Net-(J2-Pad6)")
  (net 8 "Net-(J2-Pad2)")
  (net 9 GPIO2)

  (net_class Default "This is the default net class."
    (clearance 0.2)
    (trace_width 0.25)
    (via_dia 0.8)
    (via_drill 0.4)
    (uvia_dia 0.3)
    (uvia_drill 0.1)
    (add_net CH_PD)
    (add_net GND)
    (add_net GPIO0)
    (add_net GPIO2)
    (add_net "Net-(J2-Pad2)")
    (add_net "Net-(J2-Pad6)")
    (add_net RST)
    (add_net RX_ESP)
    (add_net RX_USB)
  )

  (module Connector_PinHeader_2.54mm:PinHeader_1x06_P2.54mm_Horizontal (layer F.Cu) (tedit 59FED5CB) (tstamp 6089592D)
    (at 136.3 66.64)
    (descr "Through hole angled pin header, 1x06, 2.54mm pitch, 6mm pin length, single row")
    (tags "Through hole angled pin header THT 1x06 2.54mm single row")
    (path /608932EF)
    (fp_text reference J2 (at -0.2 -3.54) (layer F.SilkS)
      (effects (font (size 1.5 2) (thickness 0.3)))
    )
    (fp_text value USB-TTL (at -4 6.56 270) (layer F.SilkS)
      (effects (font (size 1.5 2) (thickness 0.3)))
    )
    (fp_line (start 2.135 -1.27) (end 4.04 -1.27) (layer F.Fab) (width 0.1))
    (fp_line (start 4.04 -1.27) (end 4.04 13.97) (layer F.Fab) (width 0.1))
    (fp_line (start 4.04 13.97) (end 1.5 13.97) (layer F.Fab) (width 0.1))
    (fp_line (start 1.5 13.97) (end 1.5 -0.635) (layer F.Fab) (width 0.1))
    (fp_line (start 1.5 -0.635) (end 2.135 -1.27) (layer F.Fab) (width 0.1))
    (fp_line (start -0.32 -0.32) (end 1.5 -0.32) (layer F.Fab) (width 0.1))
    (fp_line (start -0.32 -0.32) (end -0.32 0.32) (layer F.Fab) (width 0.1))
    (fp_line (start -0.32 0.32) (end 1.5 0.32) (layer F.Fab) (width 0.1))
    (fp_line (start 4.04 -0.32) (end 10.04 -0.32) (layer F.Fab) (width 0.1))
    (fp_line (start 10.04 -0.32) (end 10.04 0.32) (layer F.Fab) (width 0.1))
    (fp_line (start 4.04 0.32) (end 10.04 0.32) (layer F.Fab) (width 0.1))
    (fp_line (start -0.32 2.22) (end 1.5 2.22) (layer F.Fab) (width 0.1))
    (fp_line (start -0.32 2.22) (end -0.32 2.86) (layer F.Fab) (width 0.1))
    (fp_line (start -0.32 2.86) (end 1.5 2.86) (layer F.Fab) (width 0.1))
    (fp_line (start 4.04 2.22) (end 10.04 2.22) (layer F.Fab) (width 0.1))
    (fp_line (start 10.04 2.22) (end 10.04 2.86) (layer F.Fab) (width 0.1))
    (fp_line (start 4.04 2.86) (end 10.04 2.86) (layer F.Fab) (width 0.1))
    (fp_line (start -0.32 4.76) (end 1.5 4.76) (layer F.Fab) (width 0.1))
    (fp_line (start -0.32 4.76) (end -0.32 5.4) (layer F.Fab) (width 0.1))
    (fp_line (start -0.32 5.4) (end 1.5 5.4) (layer F.Fab) (width 0.1))
    (fp_line (start 4.04 4.76) (end 10.04 4.76) (layer F.Fab) (width 0.1))
    (fp_line (start 10.04 4.76) (end 10.04 5.4) (layer F.Fab) (width 0.1))
    (fp_line (start 4.04 5.4) (end 10.04 5.4) (layer F.Fab) (width 0.1))
    (fp_line (start -0.32 7.3) (end 1.5 7.3) (layer F.Fab) (width 0.1))
    (fp_line (start -0.32 7.3) (end -0.32 7.94) (layer F.Fab) (width 0.1))
    (fp_line (start -0.32 7.94) (end 1.5 7.94) (layer F.Fab) (width 0.1))
    (fp_line (start 4.04 7.3) (end 10.04 7.3) (layer F.Fab) (width 0.1))
    (fp_line (start 10.04 7.3) (end 10.04 7.94) (layer F.Fab) (width 0.1))
    (fp_line (start 4.04 7.94) (end 10.04 7.94) (layer F.Fab) (width 0.1))
    (fp_line (start -0.32 9.84) (end 1.5 9.84) (layer F.Fab) (width 0.1))
    (fp_line (start -0.32 9.84) (end -0.32 10.48) (layer F.Fab) (width 0.1))
    (fp_line (start -0.32 10.48) (end 1.5 10.48) (layer F.Fab) (width 0.1))
    (fp_line (start 4.04 9.84) (end 10.04 9.84) (layer F.Fab) (width 0.1))
    (fp_line (start 10.04 9.84) (end 10.04 10.48) (layer F.Fab) (width 0.1))
    (fp_line (start 4.04 10.48) (end 10.04 10.48) (layer F.Fab) (width 0.1))
    (fp_line (start -0.32 12.38) (end 1.5 12.38) (layer F.Fab) (width 0.1))
    (fp_line (start -0.32 12.38) (end -0.32 13.02) (layer F.Fab) (width 0.1))
    (fp_line (start -0.32 13.02) (end 1.5 13.02) (layer F.Fab) (width 0.1))
    (fp_line (start 4.04 12.38) (end 10.04 12.38) (layer F.Fab) (width 0.1))
    (fp_line (start 10.04 12.38) (end 10.04 13.02) (layer F.Fab) (width 0.1))
    (fp_line (start 4.04 13.02) (end 10.04 13.02) (layer F.Fab) (width 0.1))
    (fp_line (start 1.44 -1.33) (end 1.44 14.03) (layer F.SilkS) (width 0.12))
    (fp_line (start 1.44 14.03) (end 4.1 14.03) (layer F.SilkS) (width 0.12))
    (fp_line (start 4.1 14.03) (end 4.1 -1.33) (layer F.SilkS) (width 0.12))
    (fp_line (start 4.1 -1.33) (end 1.44 -1.33) (layer F.SilkS) (width 0.12))
    (fp_line (start 4.1 -0.38) (end 10.1 -0.38) (layer F.SilkS) (width 0.12))
    (fp_line (start 10.1 -0.38) (end 10.1 0.38) (layer F.SilkS) (width 0.12))
    (fp_line (start 10.1 0.38) (end 4.1 0.38) (layer F.SilkS) (width 0.12))
    (fp_line (start 4.1 -0.32) (end 10.1 -0.32) (layer F.SilkS) (width 0.12))
    (fp_line (start 4.1 -0.2) (end 10.1 -0.2) (layer F.SilkS) (width 0.12))
    (fp_line (start 4.1 -0.08) (end 10.1 -0.08) (layer F.SilkS) (width 0.12))
    (fp_line (start 4.1 0.04) (end 10.1 0.04) (layer F.SilkS) (width 0.12))
    (fp_line (start 4.1 0.16) (end 10.1 0.16) (layer F.SilkS) (width 0.12))
    (fp_line (start 4.1 0.28) (end 10.1 0.28) (layer F.SilkS) (width 0.12))
    (fp_line (start 1.11 -0.38) (end 1.44 -0.38) (layer F.SilkS) (width 0.12))
    (fp_line (start 1.11 0.38) (end 1.44 0.38) (layer F.SilkS) (width 0.12))
    (fp_line (start 1.44 1.27) (end 4.1 1.27) (layer F.SilkS) (width 0.12))
    (fp_line (start 4.1 2.16) (end 10.1 2.16) (layer F.SilkS) (width 0.12))
    (fp_line (start 10.1 2.16) (end 10.1 2.92) (layer F.SilkS) (width 0.12))
    (fp_line (start 10.1 2.92) (end 4.1 2.92) (layer F.SilkS) (width 0.12))
    (fp_line (start 1.042929 2.16) (end 1.44 2.16) (layer F.SilkS) (width 0.12))
    (fp_line (start 1.042929 2.92) (end 1.44 2.92) (layer F.SilkS) (width 0.12))
    (fp_line (start 1.44 3.81) (end 4.1 3.81) (layer F.SilkS) (width 0.12))
    (fp_line (start 4.1 4.7) (end 10.1 4.7) (layer F.SilkS) (width 0.12))
    (fp_line (start 10.1 4.7) (end 10.1 5.46) (layer F.SilkS) (width 0.12))
    (fp_line (start 10.1 5.46) (end 4.1 5.46) (layer F.SilkS) (width 0.12))
    (fp_line (start 1.042929 4.7) (end 1.44 4.7) (layer F.SilkS) (width 0.12))
    (fp_line (start 1.042929 5.46) (end 1.44 5.46) (layer F.SilkS) (width 0.12))
    (fp_line (start 1.44 6.35) (end 4.1 6.35) (layer F.SilkS) (width 0.12))
    (fp_line (start 4.1 7.24) (end 10.1 7.24) (layer F.SilkS) (width 0.12))
    (fp_line (start 10.1 7.24) (end 10.1 8) (layer F.SilkS) (width 0.12))
    (fp_line (start 10.1 8) (end 4.1 8) (layer F.SilkS) (width 0.12))
    (fp_line (start 1.042929 7.24) (end 1.44 7.24) (layer F.SilkS) (width 0.12))
    (fp_line (start 1.042929 8) (end 1.44 8) (layer F.SilkS) (width 0.12))
    (fp_line (start 1.44 8.89) (end 4.1 8.89) (layer F.SilkS) (width 0.12))
    (fp_line (start 4.1 9.78) (end 10.1 9.78) (layer F.SilkS) (width 0.12))
    (fp_line (start 10.1 9.78) (end 10.1 10.54) (layer F.SilkS) (width 0.12))
    (fp_line (start 10.1 10.54) (end 4.1 10.54) (layer F.SilkS) (width 0.12))
    (fp_line (start 1.042929 9.78) (end 1.44 9.78) (layer F.SilkS) (width 0.12))
    (fp_line (start 1.042929 10.54) (end 1.44 10.54) (layer F.SilkS) (width 0.12))
    (fp_line (start 1.44 11.43) (end 4.1 11.43) (layer F.SilkS) (width 0.12))
    (fp_line (start 4.1 12.32) (end 10.1 12.32) (layer F.SilkS) (width 0.12))
    (fp_line (start 10.1 12.32) (end 10.1 13.08) (layer F.SilkS) (width 0.12))
    (fp_line (start 10.1 13.08) (end 4.1 13.08) (layer F.SilkS) (width 0.12))
    (fp_line (start 1.042929 12.32) (end 1.44 12.32) (layer F.SilkS) (width 0.12))
    (fp_line (start 1.042929 13.08) (end 1.44 13.08) (layer F.SilkS) (width 0.12))
    (fp_line (start -1.27 0) (end -1.27 -1.27) (layer F.SilkS) (width 0.12))
    (fp_line (start -1.27 -1.27) (end 0 -1.27) (layer F.SilkS) (width 0.12))
    (fp_line (start -1.8 -1.8) (end -1.8 14.5) (layer F.CrtYd) (width 0.05))
    (fp_line (start -1.8 14.5) (end 10.55 14.5) (layer F.CrtYd) (width 0.05))
    (fp_line (start 10.55 14.5) (end 10.55 -1.8) (layer F.CrtYd) (width 0.05))
    (fp_line (start 10.55 -1.8) (end -1.8 -1.8) (layer F.CrtYd) (width 0.05))
    (fp_text user %R (at -0.2 -3.54 180) (layer F.Fab)
      (effects (font (size 1.5 2) (thickness 0.3)))
    )
    (pad 6 thru_hole oval (at 0 12.7) (size 1.7 1.7) (drill 1) (layers *.Cu *.Mask)
      (net 7 "Net-(J2-Pad6)"))
    (pad 5 thru_hole oval (at 0 10.16) (size 1.7 1.7) (drill 1) (layers *.Cu *.Mask)
      (net 5 RX_USB))
    (pad 4 thru_hole oval (at 0 7.62) (size 1.7 1.7) (drill 1) (layers *.Cu *.Mask)
      (net 2 RX_ESP))
    (pad 3 thru_hole oval (at 0 5.08) (size 1.7 1.7) (drill 1) (layers *.Cu *.Mask)
      (net 1 CH_PD))
    (pad 2 thru_hole oval (at 0 2.54) (size 1.7 1.7) (drill 1) (layers *.Cu *.Mask)
      (net 8 "Net-(J2-Pad2)"))
    (pad 1 thru_hole rect (at 0 0) (size 1.7 1.7) (drill 1) (layers *.Cu *.Mask)
      (net 6 GND))
    (model ${KISYS3DMOD}/Connector_PinHeader_2.54mm.3dshapes/PinHeader_1x06_P2.54mm_Horizontal.wrl
      (at (xyz 0 0 0))
      (scale (xyz 1 1 1))
      (rotate (xyz 0 0 0))
    )
  )

  (module Connector_PinHeader_2.54mm:PinHeader_1x02_P2.54mm_Vertical (layer F.Cu) (tedit 59FED5CC) (tstamp 6089FCB1)
    (at 147.6 59.2 90)
    (descr "Through hole straight pin header, 1x02, 2.54mm pitch, single row")
    (tags "Through hole pin header THT 1x02 2.54mm single row")
    (path /6089D794)
    (fp_text reference J3 (at -0.2 -3.1 180) (layer F.SilkS)
      (effects (font (size 1.5 2) (thickness 0.3)))
    )
    (fp_text value GPIO2 (at 2.4 1.2 180) (layer F.SilkS)
      (effects (font (size 1.5 2) (thickness 0.3)))
    )
    (fp_line (start 1.8 -1.8) (end -1.8 -1.8) (layer F.CrtYd) (width 0.05))
    (fp_line (start 1.8 4.35) (end 1.8 -1.8) (layer F.CrtYd) (width 0.05))
    (fp_line (start -1.8 4.35) (end 1.8 4.35) (layer F.CrtYd) (width 0.05))
    (fp_line (start -1.8 -1.8) (end -1.8 4.35) (layer F.CrtYd) (width 0.05))
    (fp_line (start -1.33 -1.33) (end 0 -1.33) (layer F.SilkS) (width 0.12))
    (fp_line (start -1.33 0) (end -1.33 -1.33) (layer F.SilkS) (width 0.12))
    (fp_line (start -1.33 1.27) (end 1.33 1.27) (layer F.SilkS) (width 0.12))
    (fp_line (start 1.33 1.27) (end 1.33 3.87) (layer F.SilkS) (width 0.12))
    (fp_line (start -1.33 1.27) (end -1.33 3.87) (layer F.SilkS) (width 0.12))
    (fp_line (start -1.33 3.87) (end 1.33 3.87) (layer F.SilkS) (width 0.12))
    (fp_line (start -1.27 -0.635) (end -0.635 -1.27) (layer F.Fab) (width 0.1))
    (fp_line (start -1.27 3.81) (end -1.27 -0.635) (layer F.Fab) (width 0.1))
    (fp_line (start 1.27 3.81) (end -1.27 3.81) (layer F.Fab) (width 0.1))
    (fp_line (start 1.27 -1.27) (end 1.27 3.81) (layer F.Fab) (width 0.1))
    (fp_line (start -0.635 -1.27) (end 1.27 -1.27) (layer F.Fab) (width 0.1))
    (fp_text user %R (at -0.2 -3.1) (layer F.Fab)
      (effects (font (size 1.5 2) (thickness 0.3)))
    )
    (pad 2 thru_hole oval (at 0 2.54 90) (size 1.7 1.7) (drill 1) (layers *.Cu *.Mask)
      (net 9 GPIO2))
    (pad 1 thru_hole rect (at 0 0 90) (size 1.7 1.7) (drill 1) (layers *.Cu *.Mask)
      (net 6 GND))
    (model ${KISYS3DMOD}/Connector_PinHeader_2.54mm.3dshapes/PinHeader_1x02_P2.54mm_Vertical.wrl
      (at (xyz 0 0 0))
      (scale (xyz 1 1 1))
      (rotate (xyz 0 0 0))
    )
  )

  (module Button_Switch_THT:SW_PUSH_6mm (layer F.Cu) (tedit 5A02FE31) (tstamp 608945FB)
    (at 124.3 58.5)
    (descr https://www.omron.com/ecb/products/pdf/en-b3f.pdf)
    (tags "tact sw push 6mm")
    (path /60894F85)
    (fp_text reference SW1 (at 11.3 -0.5) (layer F.SilkS)
      (effects (font (size 1.5 2) (thickness 0.3)))
    )
    (fp_text value Reset (at 12.2 1.8) (layer F.SilkS)
      (effects (font (size 1.5 2) (thickness 0.3)))
    )
    (fp_line (start 3.25 -0.75) (end 6.25 -0.75) (layer F.Fab) (width 0.1))
    (fp_line (start 6.25 -0.75) (end 6.25 5.25) (layer F.Fab) (width 0.1))
    (fp_line (start 6.25 5.25) (end 0.25 5.25) (layer F.Fab) (width 0.1))
    (fp_line (start 0.25 5.25) (end 0.25 -0.75) (layer F.Fab) (width 0.1))
    (fp_line (start 0.25 -0.75) (end 3.25 -0.75) (layer F.Fab) (width 0.1))
    (fp_line (start 7.75 6) (end 8 6) (layer F.CrtYd) (width 0.05))
    (fp_line (start 8 6) (end 8 5.75) (layer F.CrtYd) (width 0.05))
    (fp_line (start 7.75 -1.5) (end 8 -1.5) (layer F.CrtYd) (width 0.05))
    (fp_line (start 8 -1.5) (end 8 -1.25) (layer F.CrtYd) (width 0.05))
    (fp_line (start -1.5 -1.25) (end -1.5 -1.5) (layer F.CrtYd) (width 0.05))
    (fp_line (start -1.5 -1.5) (end -1.25 -1.5) (layer F.CrtYd) (width 0.05))
    (fp_line (start -1.5 5.75) (end -1.5 6) (layer F.CrtYd) (width 0.05))
    (fp_line (start -1.5 6) (end -1.25 6) (layer F.CrtYd) (width 0.05))
    (fp_line (start -1.25 -1.5) (end 7.75 -1.5) (layer F.CrtYd) (width 0.05))
    (fp_line (start -1.5 5.75) (end -1.5 -1.25) (layer F.CrtYd) (width 0.05))
    (fp_line (start 7.75 6) (end -1.25 6) (layer F.CrtYd) (width 0.05))
    (fp_line (start 8 -1.25) (end 8 5.75) (layer F.CrtYd) (width 0.05))
    (fp_line (start 1 5.5) (end 5.5 5.5) (layer F.SilkS) (width 0.12))
    (fp_line (start -0.25 1.5) (end -0.25 3) (layer F.SilkS) (width 0.12))
    (fp_line (start 5.5 -1) (end 1 -1) (layer F.SilkS) (width 0.12))
    (fp_line (start 6.75 3) (end 6.75 1.5) (layer F.SilkS) (width 0.12))
    (fp_circle (center 3.25 2.25) (end 1.25 2.5) (layer F.Fab) (width 0.1))
    (fp_text user %R (at 11.3 -0.5) (layer F.Fab)
      (effects (font (size 1.5 2) (thickness 0.3)))
    )
    (pad 1 thru_hole circle (at 6.5 0 90) (size 2 2) (drill 1.1) (layers *.Cu *.Mask)
      (net 6 GND))
    (pad 2 thru_hole circle (at 6.5 4.5 90) (size 2 2) (drill 1.1) (layers *.Cu *.Mask)
      (net 3 RST))
    (pad 1 thru_hole circle (at 0 0 90) (size 2 2) (drill 1.1) (layers *.Cu *.Mask)
      (net 6 GND))
    (pad 2 thru_hole circle (at 0 4.5 90) (size 2 2) (drill 1.1) (layers *.Cu *.Mask)
      (net 3 RST))
    (model ${KISYS3DMOD}/Button_Switch_THT.3dshapes/SW_PUSH_6mm.wrl
      (at (xyz 0 0 0))
      (scale (xyz 1 1 1))
      (rotate (xyz 0 0 0))
    )
  )

  (module Connector_PinHeader_2.54mm:PinHeader_1x02_P2.54mm_Vertical (layer F.Cu) (tedit 59FED5CC) (tstamp 608945DC)
    (at 125.26 82.1 270)
    (descr "Through hole straight pin header, 1x02, 2.54mm pitch, single row")
    (tags "Through hole pin header THT 1x02 2.54mm single row")
    (path /6089575F)
    (fp_text reference JP1 (at -1.3 -4.64 180) (layer F.SilkS)
      (effects (font (size 1.5 2) (thickness 0.3)))
    )
    (fp_text value Prog (at 0.9 -5.24 180) (layer F.SilkS)
      (effects (font (size 1.5 2) (thickness 0.3)))
    )
    (fp_line (start -0.635 -1.27) (end 1.27 -1.27) (layer F.Fab) (width 0.1))
    (fp_line (start 1.27 -1.27) (end 1.27 3.81) (layer F.Fab) (width 0.1))
    (fp_line (start 1.27 3.81) (end -1.27 3.81) (layer F.Fab) (width 0.1))
    (fp_line (start -1.27 3.81) (end -1.27 -0.635) (layer F.Fab) (width 0.1))
    (fp_line (start -1.27 -0.635) (end -0.635 -1.27) (layer F.Fab) (width 0.1))
    (fp_line (start -1.33 3.87) (end 1.33 3.87) (layer F.SilkS) (width 0.12))
    (fp_line (start -1.33 1.27) (end -1.33 3.87) (layer F.SilkS) (width 0.12))
    (fp_line (start 1.33 1.27) (end 1.33 3.87) (layer F.SilkS) (width 0.12))
    (fp_line (start -1.33 1.27) (end 1.33 1.27) (layer F.SilkS) (width 0.12))
    (fp_line (start -1.33 0) (end -1.33 -1.33) (layer F.SilkS) (width 0.12))
    (fp_line (start -1.33 -1.33) (end 0 -1.33) (layer F.SilkS) (width 0.12))
    (fp_line (start -1.8 -1.8) (end -1.8 4.35) (layer F.CrtYd) (width 0.05))
    (fp_line (start -1.8 4.35) (end 1.8 4.35) (layer F.CrtYd) (width 0.05))
    (fp_line (start 1.8 4.35) (end 1.8 -1.8) (layer F.CrtYd) (width 0.05))
    (fp_line (start 1.8 -1.8) (end -1.8 -1.8) (layer F.CrtYd) (width 0.05))
    (fp_text user %R (at -1.3 -4.64) (layer F.Fab)
      (effects (font (size 1.5 2) (thickness 0.3)))
    )
    (pad 2 thru_hole oval (at 0 2.54 270) (size 1.7 1.7) (drill 1) (layers *.Cu *.Mask)
      (net 4 GPIO0))
    (pad 1 thru_hole rect (at 0 0 270) (size 1.7 1.7) (drill 1) (layers *.Cu *.Mask)
      (net 6 GND))
    (model ${KISYS3DMOD}/Connector_PinHeader_2.54mm.3dshapes/PinHeader_1x02_P2.54mm_Vertical.wrl
      (at (xyz 0 0 0))
      (scale (xyz 1 1 1))
      (rotate (xyz 0 0 0))
    )
  )

  (module Connector_PinHeader_2.54mm:PinHeader_2x04_P2.54mm_Vertical (layer F.Cu) (tedit 59FED5CC) (tstamp 60894C12)
    (at 125.96 69.18)
    (descr "Through hole straight pin header, 2x04, 2.54mm pitch, double rows")
    (tags "Through hole pin header THT 2x04 2.54mm double row")
    (path /6088EDFF)
    (fp_text reference J1 (at 0.04 -3.18) (layer F.SilkS)
      (effects (font (size 1.5 2) (thickness 0.3)))
    )
    (fp_text value ESP8266 (at -3.06 3.72 90) (layer F.SilkS)
      (effects (font (size 1.5 2) (thickness 0.3)))
    )
    (fp_line (start 0 -1.27) (end 3.81 -1.27) (layer F.Fab) (width 0.1))
    (fp_line (start 3.81 -1.27) (end 3.81 8.89) (layer F.Fab) (width 0.1))
    (fp_line (start 3.81 8.89) (end -1.27 8.89) (layer F.Fab) (width 0.1))
    (fp_line (start -1.27 8.89) (end -1.27 0) (layer F.Fab) (width 0.1))
    (fp_line (start -1.27 0) (end 0 -1.27) (layer F.Fab) (width 0.1))
    (fp_line (start -1.33 8.95) (end 3.87 8.95) (layer F.SilkS) (width 0.12))
    (fp_line (start -1.33 1.27) (end -1.33 8.95) (layer F.SilkS) (width 0.12))
    (fp_line (start 3.87 -1.33) (end 3.87 8.95) (layer F.SilkS) (width 0.12))
    (fp_line (start -1.33 1.27) (end 1.27 1.27) (layer F.SilkS) (width 0.12))
    (fp_line (start 1.27 1.27) (end 1.27 -1.33) (layer F.SilkS) (width 0.12))
    (fp_line (start 1.27 -1.33) (end 3.87 -1.33) (layer F.SilkS) (width 0.12))
    (fp_line (start -1.33 0) (end -1.33 -1.33) (layer F.SilkS) (width 0.12))
    (fp_line (start -1.33 -1.33) (end 0 -1.33) (layer F.SilkS) (width 0.12))
    (fp_line (start -1.8 -1.8) (end -1.8 9.4) (layer F.CrtYd) (width 0.05))
    (fp_line (start -1.8 9.4) (end 4.35 9.4) (layer F.CrtYd) (width 0.05))
    (fp_line (start 4.35 9.4) (end 4.35 -1.8) (layer F.CrtYd) (width 0.05))
    (fp_line (start 4.35 -1.8) (end -1.8 -1.8) (layer F.CrtYd) (width 0.05))
    (fp_text user %R (at 0.04 -3.18 180) (layer F.Fab)
      (effects (font (size 1.5 2) (thickness 0.3)))
    )
    (pad 8 thru_hole oval (at 2.54 7.62) (size 1.7 1.7) (drill 1) (layers *.Cu *.Mask)
      (net 5 RX_USB))
    (pad 7 thru_hole oval (at 0 7.62) (size 1.7 1.7) (drill 1) (layers *.Cu *.Mask)
      (net 6 GND))
    (pad 6 thru_hole oval (at 2.54 5.08) (size 1.7 1.7) (drill 1) (layers *.Cu *.Mask)
      (net 1 CH_PD))
    (pad 5 thru_hole oval (at 0 5.08) (size 1.7 1.7) (drill 1) (layers *.Cu *.Mask)
      (net 9 GPIO2))
    (pad 4 thru_hole oval (at 2.54 2.54) (size 1.7 1.7) (drill 1) (layers *.Cu *.Mask)
      (net 3 RST))
    (pad 3 thru_hole oval (at 0 2.54) (size 1.7 1.7) (drill 1) (layers *.Cu *.Mask)
      (net 4 GPIO0))
    (pad 2 thru_hole oval (at 2.54 0) (size 1.7 1.7) (drill 1) (layers *.Cu *.Mask)
      (net 1 CH_PD))
    (pad 1 thru_hole rect (at 0 0) (size 1.7 1.7) (drill 1) (layers *.Cu *.Mask)
      (net 2 RX_ESP))
    (model ${KISYS3DMOD}/Connector_PinHeader_2.54mm.3dshapes/PinHeader_2x04_P2.54mm_Vertical.wrl
      (at (xyz 0 0 0))
      (scale (xyz 1 1 1))
      (rotate (xyz 0 0 0))
    )
  )

  (gr_line (start 133.9 68.2) (end 133.9 73.3) (layer F.SilkS) (width 0.3) (tstamp 6089A949))
  (gr_line (start 130.8 66.4) (end 130.8 70.7) (layer F.SilkS) (width 0.3))
  (gr_line (start 147.7 62.9) (end 146.5 62.9) (layer F.SilkS) (width 0.3))
  (gr_line (start 147.7 60.9) (end 147.7 62.9) (layer F.SilkS) (width 0.3))
  (gr_text GND (at 143.4 63) (layer F.SilkS) (tstamp 608A0283)
    (effects (font (size 1.5 2) (thickness 0.3)))
  )
  (gr_line (start 132 67.7) (end 132 73) (layer Dwgs.User) (width 0.2))
  (gr_text V0.1 (at 146.6 82.9) (layer F.SilkS) (tstamp 60898DBE)
    (effects (font (size 1.5 2) (thickness 0.3)))
  )
  (gr_text "gitlab.com/\ndpw19/esp/esp01" (at 156.3 69.8 90) (layer F.SilkS) (tstamp 60898DBE)
    (effects (font (size 1.5 2) (thickness 0.3)))
  )
  (gr_text DTR (at 149.7 79.3) (layer F.SilkS) (tstamp 60898DBE)
    (effects (font (size 1.5 2) (thickness 0.3)))
  )
  (gr_text RX (at 148.9 76.8) (layer F.SilkS) (tstamp 60898DBE)
    (effects (font (size 1.5 2) (thickness 0.3)))
  )
  (gr_text TX (at 149 74.3) (layer F.SilkS) (tstamp 60898DBE)
    (effects (font (size 1.5 2) (thickness 0.3)))
  )
  (gr_text 3V3 (at 150 71.7) (layer F.SilkS) (tstamp 60898DBE)
    (effects (font (size 1.5 2) (thickness 0.3)))
  )
  (gr_text CTS (at 149.8 69.2) (layer F.SilkS) (tstamp 60898DBE)
    (effects (font (size 1.5 2) (thickness 0.3)))
  )
  (gr_text GND (at 150.1 66.6) (layer F.SilkS)
    (effects (font (size 1.5 2) (thickness 0.3)))
  )
  (gr_line (start 160 55) (end 160 85) (layer Edge.Cuts) (width 0.1))
  (gr_line (start 120 55) (end 160 55) (layer Edge.Cuts) (width 0.1))
  (gr_line (start 120 85) (end 120 55) (layer Edge.Cuts) (width 0.1))
  (gr_line (start 160 85) (end 120 85) (layer Edge.Cuts) (width 0.1))
  (dimension 30 (width 0.15) (layer Dwgs.User)
    (gr_text "30.000 mm" (at 171.3 70 270) (layer Dwgs.User)
      (effects (font (size 1 1) (thickness 0.15)))
    )
    (feature1 (pts (xy 160 85) (xy 170.586421 85)))
    (feature2 (pts (xy 160 55) (xy 170.586421 55)))
    (crossbar (pts (xy 170 55) (xy 170 85)))
    (arrow1a (pts (xy 170 85) (xy 169.413579 83.873496)))
    (arrow1b (pts (xy 170 85) (xy 170.586421 83.873496)))
    (arrow2a (pts (xy 170 55) (xy 169.413579 56.126504)))
    (arrow2b (pts (xy 170 55) (xy 170.586421 56.126504)))
  )
  (dimension 40 (width 0.15) (layer Dwgs.User)
    (gr_text "40.000 mm" (at 140 48.7) (layer Dwgs.User)
      (effects (font (size 1 1) (thickness 0.15)))
    )
    (feature1 (pts (xy 160 55) (xy 160 49.413579)))
    (feature2 (pts (xy 120 55) (xy 120 49.413579)))
    (crossbar (pts (xy 120 50) (xy 160 50)))
    (arrow1a (pts (xy 160 50) (xy 158.873496 50.586421)))
    (arrow1b (pts (xy 160 50) (xy 158.873496 49.413579)))
    (arrow2a (pts (xy 120 50) (xy 121.126504 50.586421)))
    (arrow2b (pts (xy 120 50) (xy 121.126504 49.413579)))
  )

  (segment (start 128.5 69.18) (end 131.08 69.18) (width 0.508) (layer B.Cu) (net 1))
  (segment (start 133.62 71.72) (end 136.3 71.72) (width 0.508) (layer B.Cu) (net 1))
  (segment (start 131.08 69.18) (end 133.62 71.72) (width 0.508) (layer B.Cu) (net 1))
  (segment (start 131.08 74.26) (end 128.5 74.26) (width 0.508) (layer B.Cu) (net 1))
  (segment (start 133.62 71.72) (end 131.08 74.26) (width 0.508) (layer B.Cu) (net 1))
  (segment (start 136.3 74.26) (end 133.96 74.26) (width 0.508) (layer B.Cu) (net 2))
  (via (at 133.96 74.26) (size 1.5) (drill 0.4) (layers F.Cu B.Cu) (net 2))
  (via (at 133.96 67.34) (size 1.5) (drill 0.4) (layers F.Cu B.Cu) (net 2))
  (segment (start 133.96 67.34) (end 126.66 67.34) (width 0.508) (layer B.Cu) (net 2))
  (segment (start 125.96 68.04) (end 125.96 69.18) (width 0.508) (layer B.Cu) (net 2))
  (segment (start 126.66 67.34) (end 125.96 68.04) (width 0.508) (layer B.Cu) (net 2))
  (segment (start 133.96 67.34) (end 133.96 74.26) (width 0.508) (layer F.Cu) (net 2))
  (segment (start 124.3 63) (end 130.8 63) (width 0.508) (layer B.Cu) (net 3))
  (via (at 130.8 65.5) (size 1.5) (drill 0.4) (layers F.Cu B.Cu) (net 3))
  (via (at 130.8 71.7) (size 1.5) (drill 0.4) (layers F.Cu B.Cu) (net 3))
  (segment (start 128.52 71.7) (end 128.5 71.72) (width 0.508) (layer B.Cu) (net 3))
  (segment (start 130.8 71.7) (end 128.52 71.7) (width 0.508) (layer B.Cu) (net 3))
  (segment (start 130.8 63) (end 130.8 65.5) (width 0.508) (layer B.Cu) (net 3))
  (segment (start 130.8 65.5) (end 130.8 71.7) (width 0.508) (layer F.Cu) (net 3))
  (segment (start 122.72 82.1) (end 122.72 72.88) (width 0.508) (layer B.Cu) (net 4))
  (segment (start 123.88 71.72) (end 125.96 71.72) (width 0.508) (layer B.Cu) (net 4))
  (segment (start 122.72 72.88) (end 123.88 71.72) (width 0.508) (layer B.Cu) (net 4))
  (segment (start 128.5 76.8) (end 136.3 76.8) (width 0.508) (layer B.Cu) (net 5))
  (segment (start 125.96 74.26) (end 124.24 74.26) (width 0.508) (layer B.Cu) (net 9))
  (segment (start 124.24 74.26) (end 123.8 74.7) (width 0.508) (layer B.Cu) (net 9))
  (segment (start 123.8 78.5) (end 124.8 79.5) (width 0.508) (layer B.Cu) (net 9))
  (segment (start 123.8 74.7) (end 123.8 78.5) (width 0.508) (layer B.Cu) (net 9))
  (segment (start 124.8 79.5) (end 130.5 79.5) (width 0.508) (layer B.Cu) (net 9))
  (segment (start 130.5 79.5) (end 133.4 82.4) (width 0.508) (layer B.Cu) (net 9))
  (segment (start 133.4 82.4) (end 144.3 82.4) (width 0.508) (layer B.Cu) (net 9))
  (segment (start 150.14 76.56) (end 150.14 58.6) (width 0.508) (layer B.Cu) (net 9))
  (segment (start 144.3 82.4) (end 150.14 76.56) (width 0.508) (layer B.Cu) (net 9))

  (zone (net 6) (net_name GND) (layer B.Cu) (tstamp 60E10C60) (hatch edge 0.508)
    (connect_pads (clearance 0.508))
    (min_thickness 0.254)
    (fill yes (arc_segments 32) (thermal_gap 0.508) (thermal_bridge_width 0.508))
    (polygon
      (pts
        (xy 160 85) (xy 120 85) (xy 120 55) (xy 160 55)
      )
    )
    (filled_polygon
      (pts
        (xy 159.315001 84.315) (xy 120.685 84.315) (xy 120.685 81.95374) (xy 121.235 81.95374) (xy 121.235 82.24626)
        (xy 121.292068 82.533158) (xy 121.40401 82.803411) (xy 121.566525 83.046632) (xy 121.773368 83.253475) (xy 122.016589 83.41599)
        (xy 122.286842 83.527932) (xy 122.57374 83.585) (xy 122.86626 83.585) (xy 123.153158 83.527932) (xy 123.423411 83.41599)
        (xy 123.666632 83.253475) (xy 123.798487 83.12162) (xy 123.820498 83.19418) (xy 123.879463 83.304494) (xy 123.958815 83.401185)
        (xy 124.055506 83.480537) (xy 124.16582 83.539502) (xy 124.285518 83.575812) (xy 124.41 83.588072) (xy 124.97425 83.585)
        (xy 125.133 83.42625) (xy 125.133 82.227) (xy 125.387 82.227) (xy 125.387 83.42625) (xy 125.54575 83.585)
        (xy 126.11 83.588072) (xy 126.234482 83.575812) (xy 126.35418 83.539502) (xy 126.464494 83.480537) (xy 126.561185 83.401185)
        (xy 126.640537 83.304494) (xy 126.699502 83.19418) (xy 126.735812 83.074482) (xy 126.748072 82.95) (xy 126.745 82.38575)
        (xy 126.58625 82.227) (xy 125.387 82.227) (xy 125.133 82.227) (xy 125.113 82.227) (xy 125.113 81.973)
        (xy 125.133 81.973) (xy 125.133 80.77375) (xy 125.387 80.77375) (xy 125.387 81.973) (xy 126.58625 81.973)
        (xy 126.745 81.81425) (xy 126.748072 81.25) (xy 126.735812 81.125518) (xy 126.699502 81.00582) (xy 126.640537 80.895506)
        (xy 126.561185 80.798815) (xy 126.464494 80.719463) (xy 126.35418 80.660498) (xy 126.234482 80.624188) (xy 126.11 80.611928)
        (xy 125.54575 80.615) (xy 125.387 80.77375) (xy 125.133 80.77375) (xy 124.97425 80.615) (xy 124.41 80.611928)
        (xy 124.285518 80.624188) (xy 124.16582 80.660498) (xy 124.055506 80.719463) (xy 123.958815 80.798815) (xy 123.879463 80.895506)
        (xy 123.820498 81.00582) (xy 123.798487 81.07838) (xy 123.666632 80.946525) (xy 123.609 80.908017) (xy 123.609 79.566235)
        (xy 124.140504 80.09774) (xy 124.168341 80.131659) (xy 124.303709 80.242753) (xy 124.458149 80.325303) (xy 124.574892 80.360716)
        (xy 124.625725 80.376136) (xy 124.8 80.393301) (xy 124.843668 80.389) (xy 130.131765 80.389) (xy 132.740501 82.997736)
        (xy 132.768341 83.031659) (xy 132.903709 83.142753) (xy 133.058149 83.225303) (xy 133.124058 83.245296) (xy 133.225724 83.276136)
        (xy 133.258924 83.279406) (xy 133.356333 83.289) (xy 133.356339 83.289) (xy 133.399999 83.2933) (xy 133.443659 83.289)
        (xy 144.25634 83.289) (xy 144.3 83.2933) (xy 144.34366 83.289) (xy 144.343667 83.289) (xy 144.474274 83.276136)
        (xy 144.641851 83.225303) (xy 144.796291 83.142753) (xy 144.931659 83.031659) (xy 144.959499 82.997736) (xy 150.737743 77.219493)
        (xy 150.771659 77.191659) (xy 150.882753 77.056291) (xy 150.965303 76.901851) (xy 150.996199 76.8) (xy 151.016136 76.734276)
        (xy 151.026827 76.625726) (xy 151.029 76.603667) (xy 151.029 76.603661) (xy 151.0333 76.560001) (xy 151.029 76.516341)
        (xy 151.029 60.391983) (xy 151.086632 60.353475) (xy 151.293475 60.146632) (xy 151.45599 59.903411) (xy 151.567932 59.633158)
        (xy 151.625 59.34626) (xy 151.625 59.05374) (xy 151.567932 58.766842) (xy 151.45599 58.496589) (xy 151.293475 58.253368)
        (xy 151.086632 58.046525) (xy 150.843411 57.88401) (xy 150.573158 57.772068) (xy 150.28626 57.715) (xy 150.224279 57.715)
        (xy 150.14 57.706699) (xy 150.055722 57.715) (xy 149.99374 57.715) (xy 149.706842 57.772068) (xy 149.436589 57.88401)
        (xy 149.193368 58.046525) (xy 149.061513 58.17838) (xy 149.039502 58.10582) (xy 148.980537 57.995506) (xy 148.901185 57.898815)
        (xy 148.804494 57.819463) (xy 148.69418 57.760498) (xy 148.574482 57.724188) (xy 148.45 57.711928) (xy 147.88575 57.715)
        (xy 147.727 57.87375) (xy 147.727 59.073) (xy 147.747 59.073) (xy 147.747 59.327) (xy 147.727 59.327)
        (xy 147.727 60.52625) (xy 147.88575 60.685) (xy 148.45 60.688072) (xy 148.574482 60.675812) (xy 148.69418 60.639502)
        (xy 148.804494 60.580537) (xy 148.901185 60.501185) (xy 148.980537 60.404494) (xy 149.039502 60.29418) (xy 149.061513 60.22162)
        (xy 149.193368 60.353475) (xy 149.251001 60.391984) (xy 149.251 76.191764) (xy 143.931765 81.511) (xy 133.768235 81.511)
        (xy 131.159499 78.902264) (xy 131.131659 78.868341) (xy 130.996291 78.757247) (xy 130.841851 78.674697) (xy 130.674274 78.623864)
        (xy 130.543667 78.611) (xy 130.54366 78.611) (xy 130.5 78.6067) (xy 130.45634 78.611) (xy 125.168236 78.611)
        (xy 124.689 78.131765) (xy 124.689 77.567779) (xy 124.862412 77.800269) (xy 125.078645 77.995178) (xy 125.328748 78.144157)
        (xy 125.603109 78.241481) (xy 125.833 78.120814) (xy 125.833 76.927) (xy 125.813 76.927) (xy 125.813 76.673)
        (xy 125.833 76.673) (xy 125.833 76.653) (xy 126.087 76.653) (xy 126.087 76.673) (xy 126.107 76.673)
        (xy 126.107 76.927) (xy 126.087 76.927) (xy 126.087 78.120814) (xy 126.316891 78.241481) (xy 126.591252 78.144157)
        (xy 126.841355 77.995178) (xy 127.057588 77.800269) (xy 127.2289 77.570594) (xy 127.346525 77.746632) (xy 127.553368 77.953475)
        (xy 127.796589 78.11599) (xy 128.066842 78.227932) (xy 128.35374 78.285) (xy 128.64626 78.285) (xy 128.933158 78.227932)
        (xy 129.203411 78.11599) (xy 129.446632 77.953475) (xy 129.653475 77.746632) (xy 129.691983 77.689) (xy 135.108017 77.689)
        (xy 135.146525 77.746632) (xy 135.353368 77.953475) (xy 135.52776 78.07) (xy 135.353368 78.186525) (xy 135.146525 78.393368)
        (xy 134.98401 78.636589) (xy 134.872068 78.906842) (xy 134.815 79.19374) (xy 134.815 79.48626) (xy 134.872068 79.773158)
        (xy 134.98401 80.043411) (xy 135.146525 80.286632) (xy 135.353368 80.493475) (xy 135.596589 80.65599) (xy 135.866842 80.767932)
        (xy 136.15374 80.825) (xy 136.44626 80.825) (xy 136.733158 80.767932) (xy 137.003411 80.65599) (xy 137.246632 80.493475)
        (xy 137.453475 80.286632) (xy 137.61599 80.043411) (xy 137.727932 79.773158) (xy 137.785 79.48626) (xy 137.785 79.19374)
        (xy 137.727932 78.906842) (xy 137.61599 78.636589) (xy 137.453475 78.393368) (xy 137.246632 78.186525) (xy 137.07224 78.07)
        (xy 137.246632 77.953475) (xy 137.453475 77.746632) (xy 137.61599 77.503411) (xy 137.727932 77.233158) (xy 137.785 76.94626)
        (xy 137.785 76.65374) (xy 137.727932 76.366842) (xy 137.61599 76.096589) (xy 137.453475 75.853368) (xy 137.246632 75.646525)
        (xy 137.07224 75.53) (xy 137.246632 75.413475) (xy 137.453475 75.206632) (xy 137.61599 74.963411) (xy 137.727932 74.693158)
        (xy 137.785 74.40626) (xy 137.785 74.11374) (xy 137.727932 73.826842) (xy 137.61599 73.556589) (xy 137.453475 73.313368)
        (xy 137.246632 73.106525) (xy 137.07224 72.99) (xy 137.246632 72.873475) (xy 137.453475 72.666632) (xy 137.61599 72.423411)
        (xy 137.727932 72.153158) (xy 137.785 71.86626) (xy 137.785 71.57374) (xy 137.727932 71.286842) (xy 137.61599 71.016589)
        (xy 137.453475 70.773368) (xy 137.246632 70.566525) (xy 137.07224 70.45) (xy 137.246632 70.333475) (xy 137.453475 70.126632)
        (xy 137.61599 69.883411) (xy 137.727932 69.613158) (xy 137.785 69.32626) (xy 137.785 69.03374) (xy 137.727932 68.746842)
        (xy 137.61599 68.476589) (xy 137.453475 68.233368) (xy 137.32162 68.101513) (xy 137.39418 68.079502) (xy 137.504494 68.020537)
        (xy 137.601185 67.941185) (xy 137.680537 67.844494) (xy 137.739502 67.73418) (xy 137.775812 67.614482) (xy 137.788072 67.49)
        (xy 137.785 66.92575) (xy 137.62625 66.767) (xy 136.427 66.767) (xy 136.427 66.787) (xy 136.173 66.787)
        (xy 136.173 66.767) (xy 136.153 66.767) (xy 136.153 66.513) (xy 136.173 66.513) (xy 136.173 65.31375)
        (xy 136.427 65.31375) (xy 136.427 66.513) (xy 137.62625 66.513) (xy 137.785 66.35425) (xy 137.788072 65.79)
        (xy 137.775812 65.665518) (xy 137.739502 65.54582) (xy 137.680537 65.435506) (xy 137.601185 65.338815) (xy 137.504494 65.259463)
        (xy 137.39418 65.200498) (xy 137.274482 65.164188) (xy 137.15 65.151928) (xy 136.58575 65.155) (xy 136.427 65.31375)
        (xy 136.173 65.31375) (xy 136.01425 65.155) (xy 135.45 65.151928) (xy 135.325518 65.164188) (xy 135.20582 65.200498)
        (xy 135.095506 65.259463) (xy 134.998815 65.338815) (xy 134.919463 65.435506) (xy 134.860498 65.54582) (xy 134.824188 65.665518)
        (xy 134.811928 65.79) (xy 134.814406 66.245171) (xy 134.616043 66.112629) (xy 134.363989 66.008225) (xy 134.096411 65.955)
        (xy 133.823589 65.955) (xy 133.556011 66.008225) (xy 133.303957 66.112629) (xy 133.077114 66.264201) (xy 132.890315 66.451)
        (xy 131.807685 66.451) (xy 131.875799 66.382886) (xy 132.027371 66.156043) (xy 132.131775 65.903989) (xy 132.185 65.636411)
        (xy 132.185 65.363589) (xy 132.131775 65.096011) (xy 132.027371 64.843957) (xy 131.875799 64.617114) (xy 131.689 64.430315)
        (xy 131.689 64.372387) (xy 131.842252 64.269987) (xy 132.069987 64.042252) (xy 132.248918 63.774463) (xy 132.372168 63.476912)
        (xy 132.435 63.161033) (xy 132.435 62.838967) (xy 132.372168 62.523088) (xy 132.248918 62.225537) (xy 132.069987 61.957748)
        (xy 131.842252 61.730013) (xy 131.574463 61.551082) (xy 131.276912 61.427832) (xy 130.961033 61.365) (xy 130.638967 61.365)
        (xy 130.323088 61.427832) (xy 130.025537 61.551082) (xy 129.757748 61.730013) (xy 129.530013 61.957748) (xy 129.427613 62.111)
        (xy 125.672387 62.111) (xy 125.569987 61.957748) (xy 125.342252 61.730013) (xy 125.074463 61.551082) (xy 124.776912 61.427832)
        (xy 124.461033 61.365) (xy 124.138967 61.365) (xy 123.823088 61.427832) (xy 123.525537 61.551082) (xy 123.257748 61.730013)
        (xy 123.030013 61.957748) (xy 122.851082 62.225537) (xy 122.727832 62.523088) (xy 122.665 62.838967) (xy 122.665 63.161033)
        (xy 122.727832 63.476912) (xy 122.851082 63.774463) (xy 123.030013 64.042252) (xy 123.257748 64.269987) (xy 123.525537 64.448918)
        (xy 123.823088 64.572168) (xy 124.138967 64.635) (xy 124.461033 64.635) (xy 124.776912 64.572168) (xy 125.074463 64.448918)
        (xy 125.342252 64.269987) (xy 125.569987 64.042252) (xy 125.672387 63.889) (xy 129.427613 63.889) (xy 129.530013 64.042252)
        (xy 129.757748 64.269987) (xy 129.911001 64.372387) (xy 129.911001 64.430314) (xy 129.724201 64.617114) (xy 129.572629 64.843957)
        (xy 129.468225 65.096011) (xy 129.415 65.363589) (xy 129.415 65.636411) (xy 129.468225 65.903989) (xy 129.572629 66.156043)
        (xy 129.724201 66.382886) (xy 129.792315 66.451) (xy 126.703659 66.451) (xy 126.659999 66.4467) (xy 126.616339 66.451)
        (xy 126.616333 66.451) (xy 126.518924 66.460594) (xy 126.485724 66.463864) (xy 126.384058 66.494704) (xy 126.318149 66.514697)
        (xy 126.163709 66.597247) (xy 126.028341 66.708341) (xy 126.000505 66.742259) (xy 125.362263 67.380502) (xy 125.328341 67.408341)
        (xy 125.217247 67.54371) (xy 125.138023 67.691928) (xy 125.11 67.691928) (xy 124.985518 67.704188) (xy 124.86582 67.740498)
        (xy 124.755506 67.799463) (xy 124.658815 67.878815) (xy 124.579463 67.975506) (xy 124.520498 68.08582) (xy 124.484188 68.205518)
        (xy 124.471928 68.33) (xy 124.471928 70.03) (xy 124.484188 70.154482) (xy 124.520498 70.27418) (xy 124.579463 70.384494)
        (xy 124.658815 70.481185) (xy 124.755506 70.560537) (xy 124.86582 70.619502) (xy 124.93838 70.641513) (xy 124.806525 70.773368)
        (xy 124.768017 70.831) (xy 123.92366 70.831) (xy 123.88 70.8267) (xy 123.83634 70.831) (xy 123.836333 70.831)
        (xy 123.722325 70.842229) (xy 123.705725 70.843864) (xy 123.654892 70.859284) (xy 123.538149 70.894697) (xy 123.383709 70.977247)
        (xy 123.248341 71.088341) (xy 123.220506 71.122258) (xy 122.122259 72.220506) (xy 122.088342 72.248341) (xy 122.060507 72.282258)
        (xy 122.060505 72.28226) (xy 121.977248 72.383709) (xy 121.894698 72.538148) (xy 121.843864 72.705726) (xy 121.8267 72.88)
        (xy 121.831001 72.92367) (xy 121.831 80.908016) (xy 121.773368 80.946525) (xy 121.566525 81.153368) (xy 121.40401 81.396589)
        (xy 121.292068 81.666842) (xy 121.235 81.95374) (xy 120.685 81.95374) (xy 120.685 59.635413) (xy 123.344192 59.635413)
        (xy 123.439956 59.899814) (xy 123.729571 60.040704) (xy 124.041108 60.122384) (xy 124.362595 60.141718) (xy 124.681675 60.097961)
        (xy 124.986088 59.992795) (xy 125.160044 59.899814) (xy 125.255808 59.635413) (xy 129.844192 59.635413) (xy 129.939956 59.899814)
        (xy 130.229571 60.040704) (xy 130.541108 60.122384) (xy 130.862595 60.141718) (xy 131.181675 60.097961) (xy 131.320502 60.05)
        (xy 146.111928 60.05) (xy 146.124188 60.174482) (xy 146.160498 60.29418) (xy 146.219463 60.404494) (xy 146.298815 60.501185)
        (xy 146.395506 60.580537) (xy 146.50582 60.639502) (xy 146.625518 60.675812) (xy 146.75 60.688072) (xy 147.31425 60.685)
        (xy 147.473 60.52625) (xy 147.473 59.327) (xy 146.27375 59.327) (xy 146.115 59.48575) (xy 146.111928 60.05)
        (xy 131.320502 60.05) (xy 131.486088 59.992795) (xy 131.660044 59.899814) (xy 131.755808 59.635413) (xy 130.8 58.679605)
        (xy 129.844192 59.635413) (xy 125.255808 59.635413) (xy 124.3 58.679605) (xy 123.344192 59.635413) (xy 120.685 59.635413)
        (xy 120.685 58.562595) (xy 122.658282 58.562595) (xy 122.702039 58.881675) (xy 122.807205 59.186088) (xy 122.900186 59.360044)
        (xy 123.164587 59.455808) (xy 124.120395 58.5) (xy 124.479605 58.5) (xy 125.435413 59.455808) (xy 125.699814 59.360044)
        (xy 125.840704 59.070429) (xy 125.922384 58.758892) (xy 125.934189 58.562595) (xy 129.158282 58.562595) (xy 129.202039 58.881675)
        (xy 129.307205 59.186088) (xy 129.400186 59.360044) (xy 129.664587 59.455808) (xy 130.620395 58.5) (xy 130.979605 58.5)
        (xy 131.935413 59.455808) (xy 132.199814 59.360044) (xy 132.340704 59.070429) (xy 132.422384 58.758892) (xy 132.441718 58.437405)
        (xy 132.429732 58.35) (xy 146.111928 58.35) (xy 146.115 58.91425) (xy 146.27375 59.073) (xy 147.473 59.073)
        (xy 147.473 57.87375) (xy 147.31425 57.715) (xy 146.75 57.711928) (xy 146.625518 57.724188) (xy 146.50582 57.760498)
        (xy 146.395506 57.819463) (xy 146.298815 57.898815) (xy 146.219463 57.995506) (xy 146.160498 58.10582) (xy 146.124188 58.225518)
        (xy 146.111928 58.35) (xy 132.429732 58.35) (xy 132.397961 58.118325) (xy 132.292795 57.813912) (xy 132.199814 57.639956)
        (xy 131.935413 57.544192) (xy 130.979605 58.5) (xy 130.620395 58.5) (xy 129.664587 57.544192) (xy 129.400186 57.639956)
        (xy 129.259296 57.929571) (xy 129.177616 58.241108) (xy 129.158282 58.562595) (xy 125.934189 58.562595) (xy 125.941718 58.437405)
        (xy 125.897961 58.118325) (xy 125.792795 57.813912) (xy 125.699814 57.639956) (xy 125.435413 57.544192) (xy 124.479605 58.5)
        (xy 124.120395 58.5) (xy 123.164587 57.544192) (xy 122.900186 57.639956) (xy 122.759296 57.929571) (xy 122.677616 58.241108)
        (xy 122.658282 58.562595) (xy 120.685 58.562595) (xy 120.685 57.364587) (xy 123.344192 57.364587) (xy 124.3 58.320395)
        (xy 125.255808 57.364587) (xy 129.844192 57.364587) (xy 130.8 58.320395) (xy 131.755808 57.364587) (xy 131.660044 57.100186)
        (xy 131.370429 56.959296) (xy 131.058892 56.877616) (xy 130.737405 56.858282) (xy 130.418325 56.902039) (xy 130.113912 57.007205)
        (xy 129.939956 57.100186) (xy 129.844192 57.364587) (xy 125.255808 57.364587) (xy 125.160044 57.100186) (xy 124.870429 56.959296)
        (xy 124.558892 56.877616) (xy 124.237405 56.858282) (xy 123.918325 56.902039) (xy 123.613912 57.007205) (xy 123.439956 57.100186)
        (xy 123.344192 57.364587) (xy 120.685 57.364587) (xy 120.685 55.685) (xy 159.315 55.685)
      )
    )
  )
)
